<?xml version="1.0" encoding="UTF-8" standalone="no"?>
<!-- Created with Inkscape (http://www.inkscape.org/) -->

<svg
   xmlns:dc="http://purl.org/dc/elements/1.1/"
   xmlns:cc="http://creativecommons.org/ns#"
   xmlns:rdf="http://www.w3.org/1999/02/22-rdf-syntax-ns#"
   xmlns:svg="http://www.w3.org/2000/svg"
   xmlns="http://www.w3.org/2000/svg"
   xmlns:sodipodi="http://sodipodi.sourceforge.net/DTD/sodipodi-0.dtd"
   xmlns:inkscape="http://www.inkscape.org/namespaces/inkscape"
   width="210mm"
   height="297mm"
   viewBox="0 0 210 297"
   version="1.1"
   id="svg210"
   inkscape:version="0.92.4 5da689c313, 2019-01-14"
   sodipodi:docname="f3_task_lifecycle.svg"
   inkscape:export-filename="/home/mikeltxo/tfg/f3_task_lifecycle.png"
   inkscape:export-xdpi="96"
   inkscape:export-ydpi="96">
  <defs
     id="defs204">
    <marker
       inkscape:stockid="Arrow2Lend"
       orient="auto"
       refY="0.0"
       refX="0.0"
       id="marker2170"
       style="overflow:visible;"
       inkscape:isstock="true">
      <path
         id="path2168"
         style="fill-rule:evenodd;stroke-width:0.625;stroke-linejoin:round;stroke:#000000;stroke-opacity:1;fill:#000000;fill-opacity:1"
         d="M 8.7185878,4.0337352 L -2.2072895,0.016013256 L 8.7185884,-4.0017078 C 6.9730900,-1.6296469 6.9831476,1.6157441 8.7185878,4.0337352 z "
         transform="scale(1.1) rotate(180) translate(1,0)" />
    </marker>
    <marker
       inkscape:stockid="Arrow2Lend"
       orient="auto"
       refY="0.0"
       refX="0.0"
       id="marker2124"
       style="overflow:visible;"
       inkscape:isstock="true">
      <path
         id="path2122"
         style="fill-rule:evenodd;stroke-width:0.625;stroke-linejoin:round;stroke:#000000;stroke-opacity:1;fill:#000000;fill-opacity:1"
         d="M 8.7185878,4.0337352 L -2.2072895,0.016013256 L 8.7185884,-4.0017078 C 6.9730900,-1.6296469 6.9831476,1.6157441 8.7185878,4.0337352 z "
         transform="scale(1.1) rotate(180) translate(1,0)" />
    </marker>
    <marker
       inkscape:stockid="Arrow2Lend"
       orient="auto"
       refY="0.0"
       refX="0.0"
       id="marker2078"
       style="overflow:visible;"
       inkscape:isstock="true">
      <path
         id="path2076"
         style="fill-rule:evenodd;stroke-width:0.625;stroke-linejoin:round;stroke:#000000;stroke-opacity:1;fill:#000000;fill-opacity:1"
         d="M 8.7185878,4.0337352 L -2.2072895,0.016013256 L 8.7185884,-4.0017078 C 6.9730900,-1.6296469 6.9831476,1.6157441 8.7185878,4.0337352 z "
         transform="scale(1.1) rotate(180) translate(1,0)" />
    </marker>
    <marker
       inkscape:stockid="Arrow2Lstart"
       orient="auto"
       refY="0.0"
       refX="0.0"
       id="Arrow2Lstart"
       style="overflow:visible"
       inkscape:isstock="true">
      <path
         id="path1572"
         style="fill-rule:evenodd;stroke-width:0.625;stroke-linejoin:round;stroke:#000000;stroke-opacity:1;fill:#000000;fill-opacity:1"
         d="M 8.7185878,4.0337352 L -2.2072895,0.016013256 L 8.7185884,-4.0017078 C 6.9730900,-1.6296469 6.9831476,1.6157441 8.7185878,4.0337352 z "
         transform="scale(1.1) translate(1,0)" />
    </marker>
    <marker
       inkscape:stockid="Arrow2Lend"
       orient="auto"
       refY="0.0"
       refX="0.0"
       id="Arrow2Lend"
       style="overflow:visible;"
       inkscape:isstock="true">
      <path
         id="path1575"
         style="fill-rule:evenodd;stroke-width:0.625;stroke-linejoin:round;stroke:#000000;stroke-opacity:1;fill:#000000;fill-opacity:1"
         d="M 8.7185878,4.0337352 L -2.2072895,0.016013256 L 8.7185884,-4.0017078 C 6.9730900,-1.6296469 6.9831476,1.6157441 8.7185878,4.0337352 z "
         transform="scale(1.1) rotate(180) translate(1,0)" />
    </marker>
    <marker
       inkscape:stockid="Arrow1Lstart"
       orient="auto"
       refY="0.0"
       refX="0.0"
       id="Arrow1Lstart"
       style="overflow:visible"
       inkscape:isstock="true">
      <path
         id="path1554"
         d="M 0.0,0.0 L 5.0,-5.0 L -12.5,0.0 L 5.0,5.0 L 0.0,0.0 z "
         style="fill-rule:evenodd;stroke:#000000;stroke-width:1pt;stroke-opacity:1;fill:#000000;fill-opacity:1"
         transform="scale(0.8) translate(12.5,0)" />
    </marker>
  </defs>
  <sodipodi:namedview
     id="base"
     pagecolor="#ffffff"
     bordercolor="#666666"
     borderopacity="1.0"
     inkscape:pageopacity="0.0"
     inkscape:pageshadow="2"
     inkscape:zoom="0.98994949"
     inkscape:cx="500.12287"
     inkscape:cy="804.27405"
     inkscape:document-units="mm"
     inkscape:current-layer="layer1"
     showgrid="false"
     showguides="true"
     inkscape:lockguides="true"
     inkscape:window-width="1920"
     inkscape:window-height="1055"
     inkscape:window-x="0"
     inkscape:window-y="25"
     inkscape:window-maximized="0">
    <inkscape:grid
       type="xygrid"
       id="grid595" />
  </sodipodi:namedview>
  <metadata
     id="metadata207">
    <rdf:RDF>
      <cc:Work
         rdf:about="">
        <dc:format>image/svg+xml</dc:format>
        <dc:type
           rdf:resource="http://purl.org/dc/dcmitype/StillImage" />
        <dc:title></dc:title>
      </cc:Work>
    </rdf:RDF>
  </metadata>
  <g
     inkscape:label="Layer 1"
     inkscape:groupmode="layer"
     id="layer1">
    <g
       id="g617"
       transform="matrix(1.0021362,0,0,0.98779712,-0.86650297,3.2997058)">
      <rect
         y="24.119623"
         x="15.875"
         height="29.463709"
         width="43.56319"
         id="rect10-2"
         style="opacity:0.97399998;fill:#ffffff;fill-opacity:1;stroke:#000000;stroke-width:0.41421056;stroke-linecap:butt;stroke-linejoin:miter;stroke-miterlimit:4;stroke-dasharray:none;stroke-opacity:1" />
      <text
         id="text6366-0"
         y="31.759233"
         x="37.656597"
         style="font-style:normal;font-variant:normal;font-weight:normal;font-stretch:normal;font-size:7.05555534px;line-height:1.25;font-family:'CMU Serif';-inkscape-font-specification:'CMU Serif';text-align:center;letter-spacing:0px;word-spacing:0px;text-anchor:middle;fill:#000000;fill-opacity:1;stroke:none;stroke-width:0.26458332"
         xml:space="preserve"><tspan
           style="font-style:normal;font-variant:normal;font-weight:normal;font-stretch:normal;font-size:6.3499999px;font-family:'CMU Serif';-inkscape-font-specification:'CMU Serif';text-align:center;text-anchor:middle;stroke-width:0.26458332"
           y="31.759233"
           x="37.656597"
           id="tspan6364-5"
           sodipodi:role="line">fork() syscall</tspan><tspan
           id="tspan444"
           style="font-style:normal;font-variant:normal;font-weight:normal;font-stretch:normal;font-size:6.3499999px;font-family:'CMU Serif';-inkscape-font-specification:'CMU Serif';text-align:center;text-anchor:middle;stroke-width:0.26458332"
           y="40.578678"
           x="38.713867"
           sodipodi:role="line"> is called by an </tspan><tspan
           id="tspan421"
           style="font-style:normal;font-variant:normal;font-weight:normal;font-stretch:normal;font-size:6.3499999px;font-family:'CMU Serif';-inkscape-font-specification:'CMU Serif';text-align:center;text-anchor:middle;stroke-width:0.26458332"
           y="49.398121"
           x="37.656597"
           sodipodi:role="line">existing task</tspan></text>
    </g>
    <g
       id="g700"
       transform="translate(-0.83259077,-5.2916636)">
      <rect
         y="32.416664"
         x="152.13542"
         height="29.104166"
         width="43.65625"
         id="rect10-2-0-2-9"
         style="opacity:0.97399998;fill:#ffffff;fill-opacity:1;stroke:#000000;stroke-width:0.41211501;stroke-linecap:butt;stroke-linejoin:miter;stroke-miterlimit:4;stroke-dasharray:none;stroke-opacity:1" />
      <text
         id="text6366-0-6"
         y="40.317829"
         x="173.87782"
         style="font-style:normal;font-variant:normal;font-weight:normal;font-stretch:normal;font-size:7.05555534px;line-height:1.25;font-family:'CMU Serif';-inkscape-font-specification:'CMU Serif';text-align:center;letter-spacing:0px;word-spacing:0px;text-anchor:middle;fill:#000000;fill-opacity:1;stroke:none;stroke-width:0.26458332"
         xml:space="preserve"><tspan
           id="tspan421-1"
           style="font-style:normal;font-variant:normal;font-weight:normal;font-stretch:normal;font-size:6.3499999px;font-family:'CMU Serif';-inkscape-font-specification:'CMU Serif';text-align:center;text-anchor:middle;stroke-width:0.26458332"
           y="40.317829"
           x="173.87782"
           sodipodi:role="line">Zombie state</tspan><tspan
           id="tspan527"
           style="font-style:normal;font-variant:normal;font-weight:normal;font-stretch:normal;font-size:6.3499999px;font-family:'CMU Serif';-inkscape-font-specification:'CMU Serif';text-align:center;text-anchor:middle;stroke-width:0.26458332"
           y="49.137272"
           x="173.87782"
           sodipodi:role="line">Task is</tspan><tspan
           id="tspan593"
           style="font-style:normal;font-variant:normal;font-weight:normal;font-stretch:normal;font-size:6.3499999px;font-family:'CMU Serif';-inkscape-font-specification:'CMU Serif';text-align:center;text-anchor:middle;stroke-width:0.26458332"
           y="57.956718"
           x="173.87782"
           sodipodi:role="line">terminated</tspan></text>
    </g>
    <flowRoot
       xml:space="preserve"
       id="flowRoot545"
       style="fill:black;fill-opacity:1;stroke:none;font-family:sans-serif;font-style:normal;font-weight:normal;font-size:26.66666667px;line-height:1.25;letter-spacing:0px;word-spacing:0px"><flowRegion
         id="flowRegion547"><rect
           id="rect549"
           width="149.50258"
           height="76.771591"
           x="232.33508"
           y="354.80374" /></flowRegion><flowPara
         id="flowPara551" /></flowRoot>    <g
       id="g2286">
      <rect
         y="66.8125"
         x="47.625"
         height="29.104166"
         width="43.65625"
         id="rect10-2-0"
         style="opacity:0.97399998;fill:#ffffff;fill-opacity:1;stroke:#000000;stroke-width:0.41211501;stroke-linecap:butt;stroke-linejoin:miter;stroke-miterlimit:4;stroke-dasharray:none;stroke-opacity:1" />
      <text
         id="text6366-0-2"
         y="78.364563"
         x="69.399147"
         style="font-style:normal;font-variant:normal;font-weight:normal;font-stretch:normal;font-size:7.05555534px;line-height:1.25;font-family:'CMU Serif';-inkscape-font-specification:'CMU Serif';text-align:center;letter-spacing:0px;word-spacing:0px;text-anchor:middle;fill:#000000;fill-opacity:1;stroke:none;stroke-width:0.26458332"
         xml:space="preserve"><tspan
           id="tspan421-9"
           style="font-style:normal;font-variant:normal;font-weight:normal;font-stretch:normal;font-size:6.3499999px;font-family:'CMU Serif';-inkscape-font-specification:'CMU Serif';text-align:center;text-anchor:middle;stroke-width:0.26458332"
           y="78.364563"
           x="69.399147"
           sodipodi:role="line">Task ready</tspan><tspan
           id="tspan2263"
           style="font-style:normal;font-variant:normal;font-weight:normal;font-stretch:normal;font-size:6.3499999px;font-family:'CMU Serif';-inkscape-font-specification:'CMU Serif';text-align:center;text-anchor:middle;stroke-width:0.26458332"
           y="87.184006"
           x="69.399147"
           sodipodi:role="line">(queue)</tspan></text>
    </g>
    <g
       id="g705">
      <rect
         y="66.8125"
         x="117.73959"
         height="29.104166"
         width="43.65625"
         id="rect10-2-0-2"
         style="opacity:0.97399998;fill:#ffffff;fill-opacity:1;stroke:#000000;stroke-width:0.41211501;stroke-linecap:butt;stroke-linejoin:miter;stroke-miterlimit:4;stroke-dasharray:none;stroke-opacity:1" />
      <text
         id="text6366-0-3"
         y="82.913986"
         x="139.50104"
         style="font-style:normal;font-variant:normal;font-weight:normal;font-stretch:normal;font-size:7.05555534px;line-height:1.25;font-family:'CMU Serif';-inkscape-font-specification:'CMU Serif';text-align:center;letter-spacing:0px;word-spacing:0px;text-anchor:middle;fill:#000000;fill-opacity:1;stroke:none;stroke-width:0.26458332"
         xml:space="preserve"><tspan
           id="tspan421-6"
           style="font-style:normal;font-variant:normal;font-weight:normal;font-stretch:normal;font-size:6.3499999px;font-family:'CMU Serif';-inkscape-font-specification:'CMU Serif';text-align:center;text-anchor:middle;stroke-width:0.26458332"
           y="82.913986"
           x="139.50104"
           sodipodi:role="line">Task running</tspan></text>
    </g>
    <g
       id="g710"
       transform="translate(0.66146088,-23.812505)">
      <rect
         y="146.1875"
         x="82.020836"
         height="29.104166"
         width="43.65625"
         id="rect10-2-0-2-8"
         style="opacity:0.97399998;fill:#ffffff;fill-opacity:1;stroke:#000000;stroke-width:0.41211501;stroke-linecap:butt;stroke-linejoin:miter;stroke-miterlimit:4;stroke-dasharray:none;stroke-opacity:1" />
      <text
         id="text6366-0-26"
         y="162.28899"
         x="103.78228"
         style="font-style:normal;font-variant:normal;font-weight:normal;font-stretch:normal;font-size:7.05555534px;line-height:1.25;font-family:'CMU Serif';-inkscape-font-specification:'CMU Serif';text-align:center;letter-spacing:0px;word-spacing:0px;text-anchor:middle;fill:#000000;fill-opacity:1;stroke:none;stroke-width:0.26458332"
         xml:space="preserve"><tspan
           id="tspan421-7"
           style="font-style:normal;font-variant:normal;font-weight:normal;font-stretch:normal;font-size:6.3499999px;font-family:'CMU Serif';-inkscape-font-specification:'CMU Serif';text-align:center;text-anchor:middle;stroke-width:0.26458332"
           y="162.28899"
           x="103.78228"
           sodipodi:role="line">Task waiting</tspan></text>
    </g>
    <path
       style="fill:none;stroke:#000000;stroke-width:0.26458332px;stroke-linecap:butt;stroke-linejoin:miter;stroke-opacity:1;marker-start:url(#Arrow2Lstart)"
       d="M 69.385812,95.916667 V 109.14583 H 140.8233 V 95.916667"
       id="path722"
       inkscape:connector-curvature="0" />
    <path
       style="fill:none;stroke:#000000;stroke-width:0.26458332px;stroke-linecap:butt;stroke-linejoin:miter;stroke-opacity:1;marker-end:url(#marker2078)"
       d="M 140.75833,109.14583 V 138.25 h -13.22916"
       id="path724"
       inkscape:connector-curvature="0" />
    <path
       style="fill:none;stroke:#000000;stroke-width:0.26458332px;stroke-linecap:butt;stroke-linejoin:miter;stroke-opacity:1"
       d="M 82.549999,138.25 H 69.320833 v -29.10417"
       id="path726"
       inkscape:connector-curvature="0" />
    <path
       style="fill:none;stroke:#000000;stroke-width:0.26458332px;stroke-linecap:butt;stroke-linejoin:miter;stroke-opacity:1;marker-end:url(#marker2170)"
       d="M 37.041666,56.229167 V 82.6875 h 10.583333"
       id="path730"
       inkscape:connector-curvature="0" />
    <path
       style="fill:none;stroke:#000000;stroke-width:0.26458332px;stroke-linecap:butt;stroke-linejoin:miter;stroke-opacity:1;marker-end:url(#marker2124)"
       d="M 161.39583,82.6875 H 174.625 V 56.229167"
       id="path732"
       inkscape:connector-curvature="0" />
    <path
       style="fill:none;stroke:#000000;stroke-width:0.26499999;stroke-linecap:butt;stroke-linejoin:miter;stroke-miterlimit:4;stroke-dasharray:none;stroke-opacity:1;marker-end:url(#Arrow2Lend)"
       d="M 67.666585,66.8125 V 53.583389 H 139.10409 V 66.8125"
       id="path722-7"
       inkscape:connector-curvature="0" />
    <text
       xml:space="preserve"
       style="font-style:normal;font-variant:normal;font-weight:normal;font-stretch:normal;font-size:4.93888903px;line-height:1.25;font-family:'CMU Serif';-inkscape-font-specification:'CMU Serif';text-align:center;letter-spacing:0px;word-spacing:0px;text-anchor:middle;fill:#000000;fill-opacity:1;stroke:none;stroke-width:0.26458332"
       x="104.98024"
       y="50.937511"
       id="text2241"><tspan
         sodipodi:role="line"
         id="tspan2239"
         x="104.98024"
         y="50.937511"
         style="font-size:4.93888903px;text-align:center;text-anchor:middle;stroke-width:0.26458332">Task dispatched</tspan></text>
    <text
       xml:space="preserve"
       style="font-style:normal;font-variant:normal;font-weight:normal;font-stretch:normal;font-size:4.93888903px;line-height:1.25;font-family:'CMU Serif';-inkscape-font-specification:'CMU Serif';letter-spacing:0px;word-spacing:0px;fill:#000000;fill-opacity:1;stroke:none;stroke-width:0.26458332;text-anchor:middle;text-align:center;"
       x="174.64079"
       y="87.931313"
       id="text2245"><tspan
         sodipodi:role="line"
         id="tspan2243"
         x="163.89134"
         y="87.931313"
         style="font-size:4.93888903px;stroke-width:0.26458332;text-anchor:middle;text-align:center;">Task exits</tspan></text>
    <text
       xml:space="preserve"
       style="font-style:normal;font-variant:normal;font-weight:normal;font-stretch:normal;font-size:4.93888903px;line-height:1.25;font-family:'CMU Serif';-inkscape-font-specification:'CMU Serif';letter-spacing:0px;word-spacing:0px;fill:#000000;fill-opacity:1;stroke:none;stroke-width:0.26458332"
       x="13.412786"
       y="61.550571"
       id="text2249"><tspan
         sodipodi:role="line"
         id="tspan2247"
         x="13.412786"
         y="61.550571"
         style="font-size:4.93888903px;stroke-width:0.26458332">Task forks</tspan></text>
    <text
       xml:space="preserve"
       style="font-style:normal;font-variant:normal;font-weight:normal;font-stretch:normal;font-size:4.93888903px;line-height:1.25;font-family:'CMU Serif';-inkscape-font-specification:'CMU Serif';letter-spacing:0px;word-spacing:0px;fill:#000000;fill-opacity:1;stroke:none;stroke-width:0.26458332"
       x="93.292397"
       y="105.55505"
       id="text2253"><tspan
         sodipodi:role="line"
         id="tspan2251"
         x="93.292397"
         y="105.55505"
         style="font-size:4.93888903px;stroke-width:0.26458332">Preempted</tspan></text>
    <text
       xml:space="preserve"
       style="font-style:normal;font-variant:normal;font-weight:normal;font-stretch:normal;font-size:4.93888903px;line-height:1.25;font-family:'CMU Serif';-inkscape-font-specification:'CMU Serif';text-align:center;letter-spacing:0px;word-spacing:0px;text-anchor:middle;fill:#000000;fill-opacity:1;stroke:none;stroke-width:0.26458332"
       x="153.74318"
       y="121.12943"
       id="text2257"><tspan
         sodipodi:role="line"
         id="tspan2255"
         x="153.74318"
         y="121.12943"
         style="font-size:4.93888903px;text-align:center;text-anchor:middle;stroke-width:0.26458332">Task sleeps</tspan><tspan
         sodipodi:role="line"
         x="153.74318"
         y="127.30304"
         style="font-size:4.93888903px;text-align:center;text-anchor:middle;stroke-width:0.26458332"
         id="tspan2288">for event</tspan></text>
    <text
       xml:space="preserve"
       style="font-style:normal;font-variant:normal;font-weight:normal;font-stretch:normal;font-size:4.93888903px;line-height:1.25;font-family:'CMU Serif';-inkscape-font-specification:'CMU Serif';text-align:center;letter-spacing:0px;word-spacing:0px;text-anchor:middle;fill:#000000;fill-opacity:1;stroke:none;stroke-width:0.26458332"
       x="68.695908"
       y="143.91962"
       id="text2261"><tspan
         sodipodi:role="line"
         id="tspan2259"
         x="68.695908"
         y="143.91962"
         style="font-size:4.93888903px;text-align:center;text-anchor:middle;stroke-width:0.26458332">Event wakes</tspan><tspan
         sodipodi:role="line"
         x="68.695908"
         y="150.09323"
         style="font-size:4.93888903px;text-align:center;text-anchor:middle;stroke-width:0.26458332"
         id="tspan2290">the task up</tspan></text>
    <text
       xml:space="preserve"
       style="font-style:normal;font-variant:normal;font-weight:normal;font-stretch:normal;font-size:7.05555534px;line-height:1.25;font-family:'CMU Serif';-inkscape-font-specification:'CMU Serif';letter-spacing:0px;word-spacing:0px;fill:#000000;fill-opacity:1;stroke:none;stroke-width:0.26458332"
       x="76.729164"
       y="77.395828"
       id="text2267"><tspan
         sodipodi:role="line"
         id="tspan2265"
         x="76.729164"
         y="83.922218"
         style="stroke-width:0.26458332" /></text>
  </g>
</svg>
