Iteration,Cache,Pattern,Test,Blocksize,Bandwidth(GBps),Time(s)
1,cold,seq,readmmap,4096,1.598,10.010
2,cold,seq,readmmap,4096,2.673,5.985
3,cold,seq,readmmap,4096,3.348,4.779
4,cold,seq,readmmap,4096,3.175,5.039
5,cold,seq,readmmap,4096,3.516,4.551
1,cold,seq,readmmap,8192,3.194,5.009
2,cold,seq,readmmap,8192,2.830,5.654
3,cold,seq,readmmap,8192,3.071,5.210
4,cold,seq,readmmap,8192,2.634,6.074
5,cold,seq,readmmap,8192,3.045,5.255
1,cold,seq,readmmap,16384,3.134,5.106
2,cold,seq,readmmap,16384,3.208,4.988
3,cold,seq,readmmap,16384,2.841,5.631
4,cold,seq,readmmap,16384,3.376,4.740
5,cold,seq,readmmap,16384,2.924,5.472
,,,,,,,
1,cold,seq,readsyscall,4096,2.973,5.382
2,cold,seq,readsyscall,4096,2.919,5.481
3,cold,seq,readsyscall,4096,2.935,5.451
4,cold,seq,readsyscall,4096,2.807,5.701
5,cold,seq,readsyscall,4096,2.825,5.665
1,cold,seq,readsyscall,8192,3.206,4.990
2,cold,seq,readsyscall,8192,3.196,5.006
3,cold,seq,readsyscall,8192,3.171,5.046
4,cold,seq,readsyscall,8192,3.201,4.999
5,cold,seq,readsyscall,8192,3.309,4.836
1,cold,seq,readsyscall,16384,3.391,4.718
2,cold,seq,readsyscall,16384,3.364,4.756
3,cold,seq,readsyscall,16384,3.477,4.601
4,cold,seq,readsyscall,16384,3.424,4.673
5,cold,seq,readsyscall,16384,3.375,4.740
,,,,,,,
1,cold,seq,writemmap,4096,0.067,238.884
2,cold,seq,writemmap,4096,0.029,547.326
3,cold,seq,writemmap,4096,0.030,526.808
4,cold,seq,writemmap,4096,0.034,477.368
5,cold,seq,writemmap,4096,0.031,508.585
1,cold,seq,writemmap,8192,0.032,504.312
2,cold,seq,writemmap,8192,0.048,334.957
3,cold,seq,writemmap,8192,0.034,474.640
4,cold,seq,writemmap,8192,0.032,496.973
5,cold,seq,writemmap,8192,0.033,479.788
1,cold,seq,writemmap,16384,0.035,461.875
2,cold,seq,writemmap,16384,0.043,368.889
3,cold,seq,writemmap,16384,0.028,568.224
4,cold,seq,writemmap,16384,0.033,485.604
5,cold,seq,writemmap,16384,0.035,455.191
,,,,,,,
1,cold,seq,writesyscall,4096,0.034,471.506
2,cold,seq,writesyscall,4096,0.034,477.037
3,cold,seq,writesyscall,4096,0.035,457.468
4,cold,seq,writesyscall,4096,0.034,477.457
5,cold,seq,writesyscall,4096,0.032,492.459
1,cold,seq,writesyscall,8192,0.031,509.875
2,cold,seq,writesyscall,8192,0.031,519.556
3,cold,seq,writesyscall,8192,0.032,499.276
4,cold,seq,writesyscall,8192,0.031,516.798
5,cold,seq,writesyscall,8192,0.031,520.543
1,cold,seq,writesyscall,16384,0.032,505.081
2,cold,seq,writesyscall,16384,0.033,492.018
3,cold,seq,writesyscall,16384,0.032,506.454
4,cold,seq,writesyscall,16384,0.031,514.703
5,cold,seq,writesyscall,16384,0.031,512.633
,,,,,,,
1,cold,rnd,readmmap,4096,0.008,1953.670
2,cold,rnd,readmmap,4096,0.008,1972.401
3,cold,rnd,readmmap,4096,0.008,1962.128
4,cold,rnd,readmmap,4096,0.008,1983.438
5,cold,rnd,readmmap,4096,0.008,1982.072
1,cold,rnd,readmmap,8192,0.016,997.033
2,cold,rnd,readmmap,8192,0.016,1001.760
3,cold,rnd,readmmap,8192,0.016,1019.095
4,cold,rnd,readmmap,8192,0.016,999.074
5,cold,rnd,readmmap,8192,0.016,1000.087
1,cold,rnd,readmmap,16384,0.031,515.912
2,cold,rnd,readmmap,16384,0.029,551.771
3,cold,rnd,readmmap,16384,0.030,532.579
4,cold,rnd,readmmap,16384,0.031,524.353
5,cold,rnd,readmmap,16384,0.031,523.888
,,,,,,,
1,cold,rnd,readsyscall,4096,0.023,692.034
2,cold,rnd,readsyscall,4096,0.021,779.550
3,cold,rnd,readsyscall,4096,0.020,804.427
4,cold,rnd,readsyscall,4096,0.021,771.906
5,cold,rnd,readsyscall,4096,0.020,793.218
1,cold,rnd,readsyscall,8192,0.026,622.482
2,cold,rnd,readsyscall,8192,0.026,620.681
3,cold,rnd,readsyscall,8192,0.025,638.719
4,cold,rnd,readsyscall,8192,0.026,617.866
5,cold,rnd,readsyscall,8192,0.025,644.637
1,cold,rnd,readsyscall,16384,0.042,382.304
2,cold,rnd,readsyscall,16384,0.044,367.526
3,cold,rnd,readsyscall,16384,0.041,391.545
4,cold,rnd,readsyscall,16384,0.041,388.501
5,cold,rnd,readsyscall,16384,0.044,366.398
,,,,,,,
1,cold,rnd,writemmap,4096,0.005,2934.446
2,cold,rnd,writemmap,4096,0.004,4135.234
3,cold,rnd,writemmap,4096,0.004,4048.392
4,cold,rnd,writemmap,4096,0.004,4062.872
5,cold,rnd,writemmap,4096,0.004,4239.572
1,cold,rnd,writemmap,8192,0.007,2324.094
2,cold,rnd,writemmap,8192,0.008,2132.005
3,cold,rnd,writemmap,8192,0.007,2145.084
4,cold,rnd,writemmap,8192,0.007,2175.852
5,cold,rnd,writemmap,8192,0.007,2174.241
1,cold,rnd,writemmap,16384,0.011,1397.988
2,cold,rnd,writemmap,16384,0.014,1176.599
3,cold,rnd,writemmap,16384,0.014,1169.757
4,cold,rnd,writemmap,16384,0.014,1157.042
5,cold,rnd,writemmap,16384,0.013,1221.704
,,,,,,,
1,cold,rnd,writesyscall,4096,0.032,496.746
2,cold,rnd,writesyscall,4096,0.033,486.275
3,cold,rnd,writesyscall,4096,0.035,451.415
4,cold,rnd,writesyscall,4096,0.034,471.340
5,cold,rnd,writesyscall,4096,0.033,479.511
1,cold,rnd,writesyscall,8192,0.031,511.180
2,cold,rnd,writesyscall,8192,0.032,499.782
3,cold,rnd,writesyscall,8192,0.032,507.027
4,cold,rnd,writesyscall,8192,0.032,505.167
5,cold,rnd,writesyscall,8192,0.033,482.667
1,cold,rnd,writesyscall,16384,0.029,546.429
2,cold,rnd,writesyscall,16384,0.030,534.568
3,cold,rnd,writesyscall,16384,0.030,532.233
4,cold,rnd,writesyscall,16384,0.031,516.914
5,cold,rnd,writesyscall,16384,0.029,547.862
,,,,,,,
1,warm,seq,readmmap,4096,0.218,73.291
2,warm,seq,readmmap,4096,0.233,68.683
3,warm,seq,readmmap,4096,0.215,74.546
4,warm,seq,readmmap,4096,0.239,66.929
5,warm,seq,readmmap,4096,0.232,68.955
1,warm,seq,readmmap,8192,0.227,70.568
2,warm,seq,readmmap,8192,0.256,62.611
3,warm,seq,readmmap,8192,0.187,85.477
4,warm,seq,readmmap,8192,0.217,73.764
5,warm,seq,readmmap,8192,0.237,67.611
1,warm,seq,readmmap,16384,0.215,74.394
2,warm,seq,readmmap,16384,0.232,68.999
3,warm,seq,readmmap,16384,0.250,63.963
4,warm,seq,readmmap,16384,0.209,76.659
5,warm,seq,readmmap,16384,0.229,69.761
,,,,,,,
1,warm,seq,readsyscall,4096,0.230,69.422
2,warm,seq,readsyscall,4096,0.231,69.397
3,warm,seq,readsyscall,4096,0.230,69.425
4,warm,seq,readsyscall,4096,0.226,70.933
5,warm,seq,readsyscall,4096,0.226,70.863
1,warm,seq,readsyscall,8192,0.232,69.114
2,warm,seq,readsyscall,8192,0.221,72.256
3,warm,seq,readsyscall,8192,0.225,70.985
4,warm,seq,readsyscall,8192,0.225,71.236
5,warm,seq,readsyscall,8192,0.220,72.793
1,warm,seq,readsyscall,16384,0.230,69.706
2,warm,seq,readsyscall,16384,0.225,71.205
3,warm,seq,readsyscall,16384,0.225,71.060
4,warm,seq,readsyscall,16384,0.215,74.302
5,warm,seq,readsyscall,16384,0.225,71.144
,,,,,,,
1,warm,seq,writemmap,4096,0.022,729.543
2,warm,seq,writemmap,4096,0.027,585.594
3,warm,seq,writemmap,4096,0.033,479.318
4,warm,seq,writemmap,4096,0.029,560.933
5,warm,seq,writemmap,4096,0.031,511.572
1,warm,seq,writemmap,8192,0.038,424.104
2,warm,seq,writemmap,8192,0.031,519.521
3,warm,seq,writemmap,8192,0.033,490.895
4,warm,seq,writemmap,8192,0.033,486.486
5,warm,seq,writemmap,8192,0.035,455.390
1,warm,seq,writemmap,16384,0.029,557.732
2,warm,seq,writemmap,16384,0.036,441.041
3,warm,seq,writemmap,16384,0.030,525.991
4,warm,seq,writemmap,16384,0.032,506.010
5,warm,seq,writemmap,16384,0.039,408.123
,,,,,,,
1,warm,seq,writesyscall,4096,0.034,475.993
2,warm,seq,writesyscall,4096,0.033,479.944
3,warm,seq,writesyscall,4096,0.032,496.848
4,warm,seq,writesyscall,4096,0.031,510.442
5,warm,seq,writesyscall,4096,0.031,519.178
1,warm,seq,writesyscall,8192,0.032,504.161
2,warm,seq,writesyscall,8192,0.032,500.533
3,warm,seq,writesyscall,8192,0.032,500.104
4,warm,seq,writesyscall,8192,0.031,517.307
5,warm,seq,writesyscall,8192,0.031,510.007
1,warm,seq,writesyscall,16384,0.031,517.946
2,warm,seq,writesyscall,16384,0.032,497.985
3,warm,seq,writesyscall,16384,0.030,534.194
4,warm,seq,writesyscall,16384,0.029,545.832
5,warm,seq,writesyscall,16384,0.031,518.149
,,,,,,,
1,warm,rnd,readmmap,4096,0.008,1935.232
2,warm,rnd,readmmap,4096,0.008,1955.759
3,warm,rnd,readmmap,4096,0.008,1920.158
4,warm,rnd,readmmap,4096,0.008,1980.089
5,warm,rnd,readmmap,4096,0.008,1982.567
1,warm,rnd,readmmap,8192,0.016,998.893
2,warm,rnd,readmmap,8192,0.016,1021.621
3,warm,rnd,readmmap,8192,0.016,990.051
4,warm,rnd,readmmap,8192,0.016,983.175
5,warm,rnd,readmmap,8192,0.016,996.495
1,warm,rnd,readmmap,16384,0.030,525.022
2,warm,rnd,readmmap,16384,0.028,563.355
3,warm,rnd,readmmap,16384,0.030,525.952
4,warm,rnd,readmmap,16384,0.031,517.168
5,warm,rnd,readmmap,16384,0.031,520.743
,,,,,,,
1,warm,rnd,readsyscall,4096,0.024,653.414
2,warm,rnd,readsyscall,4096,0.023,685.201
3,warm,rnd,readsyscall,4096,0.021,753.308
4,warm,rnd,readsyscall,4096,0.023,707.950
5,warm,rnd,readsyscall,4096,0.021,747.604
1,warm,rnd,readsyscall,8192,0.029,543.509
2,warm,rnd,readsyscall,8192,0.034,472.575
3,warm,rnd,readsyscall,8192,0.030,528.945
4,warm,rnd,readsyscall,8192,0.033,488.963
5,warm,rnd,readsyscall,8192,0.032,506.858
1,warm,rnd,readsyscall,16384,0.043,372.693
2,warm,rnd,readsyscall,16384,0.049,329.335
3,warm,rnd,readsyscall,16384,0.047,343.733
4,warm,rnd,readsyscall,16384,0.050,318.782
5,warm,rnd,readsyscall,16384,0.048,336.614
,,,,,,,
1,warm,rnd,writemmap,4096,0.005,2979.459
2,warm,rnd,writemmap,4096,0.004,4093.224
3,warm,rnd,writemmap,4096,0.004,4179.520
4,warm,rnd,writemmap,4096,0.004,4196.643
5,warm,rnd,writemmap,4096,0.004,4245.015
1,warm,rnd,writemmap,8192,0.007,2313.961
2,warm,rnd,writemmap,8192,0.007,2151.592
3,warm,rnd,writemmap,8192,0.008,2132.088
4,warm,rnd,writemmap,8192,0.007,2142.277
5,warm,rnd,writemmap,8192,0.008,2116.217
1,warm,rnd,writemmap,16384,0.011,1400.205
2,warm,rnd,writemmap,16384,0.013,1212.168
3,warm,rnd,writemmap,16384,0.013,1208.603
4,warm,rnd,writemmap,16384,0.013,1197.423
5,warm,rnd,writemmap,16384,0.013,1234.193
,,,,,,,
1,warm,rnd,writesyscall,4096,0.031,512.241
2,warm,rnd,writesyscall,4096,0.032,507.930
3,warm,rnd,writesyscall,4096,0.034,469.183
4,warm,rnd,writesyscall,4096,0.035,458.066
5,warm,rnd,writesyscall,4096,0.035,455.719
1,warm,rnd,writesyscall,8192,0.031,518.269
2,warm,rnd,writesyscall,8192,0.031,520.094
3,warm,rnd,writesyscall,8192,0.031,518.719
4,warm,rnd,writesyscall,8192,0.030,531.215
5,warm,rnd,writesyscall,8192,0.032,499.343
1,warm,rnd,writesyscall,16384,0.028,574.742
2,warm,rnd,writesyscall,16384,0.027,586.052
3,warm,rnd,writesyscall,16384,0.030,538.369
4,warm,rnd,writesyscall,16384,0.029,546.979
5,warm,rnd,writesyscall,16384,0.029,559.223
,,,,,,,
