Iteration,Cache,Pattern,Test,Blocksize,Bandwidth(GBps),Time(s)
1,cold,seq,readmmap,8192,11.954,0.084
2,cold,seq,readmmap,8192,11.034,0.091
3,cold,seq,readmmap,8192,9.206,0.109
4,cold,seq,readmmap,8192,10.949,0.091
5,cold,seq,readmmap,8192,11.570,0.086
1,cold,seq,readsyscall,8192,0.469,2.132
2,cold,seq,readsyscall,8192,0.466,2.145
3,cold,seq,readsyscall,8192,0.462,2.165
4,cold,seq,readsyscall,8192,0.374,2.671
5,cold,seq,readsyscall,8192,0.470,2.129
1,cold,seq,writemmap,8192,2.548,0.392
2,cold,seq,writemmap,8192,0.329,3.036
3,cold,seq,writemmap,8192,0.088,11.369
4,cold,seq,writemmap,8192,0.210,4.763
5,cold,seq,writemmap,8192,0.051,19.749
1,cold,seq,writesyscall,8192,1.370,0.730
2,cold,seq,writesyscall,8192,0.057,17.485
3,cold,seq,writesyscall,8192,0.113,8.830
4,cold,seq,writesyscall,8192,0.059,16.950
5,cold,seq,writesyscall,8192,0.246,4.064
1,cold,rnd,readmmap,8192,10.905,0.092
2,cold,rnd,readmmap,8192,10.293,0.097
3,cold,rnd,readmmap,8192,10.241,0.098
4,cold,rnd,readmmap,8192,10.421,0.096
5,cold,rnd,readmmap,8192,10.148,0.099
1,cold,rnd,readsyscall,8192,0.037,27.307
2,cold,rnd,readsyscall,8192,0.035,28.935
3,cold,rnd,readsyscall,8192,0.029,34.278
4,cold,rnd,readsyscall,8192,0.034,29.104
5,cold,rnd,readsyscall,8192,0.032,31.041
1,cold,rnd,writemmap,8192,2.712,0.369
2,cold,rnd,writemmap,8192,1.615,0.619
3,cold,rnd,writemmap,8192,2.818,0.355
4,cold,rnd,writemmap,8192,1.993,0.502
5,cold,rnd,writemmap,8192,1.757,0.569
1,cold,rnd,writesyscall,8192,0.171,5.861
2,cold,rnd,writesyscall,8192,0.711,1.407
3,cold,rnd,writesyscall,8192,3.557,0.281
4,cold,rnd,writesyscall,8192,4.186,0.239
5,cold,rnd,writesyscall,8192,4.189,0.239
1,warm,seq,readmmap,8192,11.807,0.085
2,warm,seq,readmmap,8192,11.787,0.085
3,warm,seq,readmmap,8192,12.089,0.083
4,warm,seq,readmmap,8192,11.268,0.089
5,warm,seq,readmmap,8192,11.997,0.083
1,warm,seq,readsyscall,8192,5.757,0.174
2,warm,seq,readsyscall,8192,5.959,0.168
3,warm,seq,readsyscall,8192,6.043,0.165
4,warm,seq,readsyscall,8192,6.050,0.165
5,warm,seq,readsyscall,8192,6.055,0.165
1,warm,seq,writemmap,8192,0.048,21.002
2,warm,seq,writemmap,8192,0.028,36.249
3,warm,seq,writemmap,8192,0.032,31.513
4,warm,seq,writemmap,8192,0.025,39.816
5,warm,seq,writemmap,8192,0.035,28.236
1,warm,seq,writesyscall,8192,0.029,34.579
2,warm,seq,writesyscall,8192,0.042,23.886
3,warm,seq,writesyscall,8192,0.088,11.385
4,warm,seq,writesyscall,8192,0.442,2.262
5,warm,seq,writesyscall,8192,0.036,28.009
1,warm,rnd,readmmap,8192,10.389,0.096
2,warm,rnd,readmmap,8192,10.378,0.096
3,warm,rnd,readmmap,8192,10.345,0.097
4,warm,rnd,readmmap,8192,10.120,0.099
5,warm,rnd,readmmap,8192,9.830,0.102
1,warm,rnd,readsyscall,8192,5.286,0.189
2,warm,rnd,readsyscall,8192,5.546,0.180
3,warm,rnd,readsyscall,8192,5.645,0.177
4,warm,rnd,readsyscall,8192,5.658,0.177
5,warm,rnd,readsyscall,8192,5.655,0.177
1,warm,rnd,writemmap,8192,0.191,5.225
2,warm,rnd,writemmap,8192,0.188,5.327
3,warm,rnd,writemmap,8192,0.200,5.005
4,warm,rnd,writemmap,8192,0.322,3.102
5,warm,rnd,writemmap,8192,0.212,4.707
1,warm,rnd,writesyscall,8192,0.160,6.241
2,warm,rnd,writesyscall,8192,0.264,3.789
3,warm,rnd,writesyscall,8192,1.744,0.573
4,warm,rnd,writesyscall,8192,0.151,6.605
5,warm,rnd,writesyscall,8192,0.087,11.528
