%!PS-Adobe-3.0 EPSF-3.0
%%Title: 4_cluster
%%Creator: matplotlib version 3.2.1, http://matplotlib.org/
%%CreationDate: Thu Jun 18 10:42:46 2020
%%Orientation: portrait
%%BoundingBox: 18.0 108.0 594.0 684.0
%%EndComments
%%BeginProlog
/mpldict 8 dict def
mpldict begin
/m { moveto } bind def
/l { lineto } bind def
/r { rlineto } bind def
/c { curveto } bind def
/cl { closepath } bind def
/box {
m
1 index 0 r
0 exch r
neg 0 r
cl
} bind def
/clipbox {
box
clip
newpath
} bind def
%!PS-Adobe-3.0 Resource-Font
%%Title: DejaVu Sans
%%Copyright: Copyright (c) 2003 by Bitstream, Inc. All Rights Reserved. Copyright (c) 2006 by Tavmjong Bah. All Rights Reserved. DejaVu changes are in public domain 
%%Creator: Converted from TrueType to type 3 by PPR
25 dict begin
/_d{bind def}bind def
/_m{moveto}_d
/_l{lineto}_d
/_cl{closepath eofill}_d
/_c{curveto}_d
/_sc{7 -1 roll{setcachedevice}{pop pop pop pop pop pop}ifelse}_d
/_e{exec}_d
/FontName /DejaVuSans def
/PaintType 0 def
/FontMatrix[.001 0 0 .001 0 0]def
/FontBBox[-1021 -463 1793 1232]def
/FontType 3 def
/Encoding [ /space /parenleft /parenright /hyphen /period /slash /zero /one /two /five /B /G /I /M /O /R /S /a /c /d /e /h /i /l /m /n /o /q /r /s /t /u /w ] def
/FontInfo 10 dict dup begin
/FamilyName (DejaVu Sans) def
/FullName (DejaVu Sans) def
/Notice (Copyright (c) 2003 by Bitstream, Inc. All Rights Reserved. Copyright (c) 2006 by Tavmjong Bah. All Rights Reserved. DejaVu changes are in public domain ) def
/Weight (Book) def
/Version (Version 2.35) def
/ItalicAngle 0.0 def
/isFixedPitch false def
/UnderlinePosition -130 def
/UnderlineThickness 90 def
end readonly def
/CharStrings 34 dict dup begin
/.notdef 0 def
/space{318 0 0 0 0 0 _sc
}_d
/parenleft{390 0 86 -131 310 759 _sc
310 759 _m
266 683 234 609 213 536 _c
191 463 181 389 181 314 _c
181 238 191 164 213 91 _c
234 17 266 -56 310 -131 _c
232 -131 _l
183 -54 146 20 122 94 _c
98 168 86 241 86 314 _c
86 386 98 459 122 533 _c
146 607 182 682 232 759 _c
310 759 _l
_cl}_d
/parenright{390 0 80 -131 304 759 _sc
80 759 _m
158 759 _l
206 682 243 607 267 533 _c
291 459 304 386 304 314 _c
304 241 291 168 267 94 _c
243 20 206 -54 158 -131 _c
80 -131 _l
123 -56 155 17 177 91 _c
198 164 209 238 209 314 _c
209 389 198 463 177 536 _c
155 609 123 683 80 759 _c
_cl}_d
/hyphen{361 0 49 234 312 314 _sc
49 314 _m
312 314 _l
312 234 _l
49 234 _l
49 314 _l
_cl}_d
/period{318 0 107 0 210 124 _sc
107 124 _m
210 124 _l
210 0 _l
107 0 _l
107 124 _l
_cl}_d
/slash{337 0 0 -92 337 729 _sc
254 729 _m
337 729 _l
83 -92 _l
0 -92 _l
254 729 _l
_cl}_d
/zero{636 0 66 -13 570 742 _sc
318 664 _m
267 664 229 639 203 589 _c
177 539 165 464 165 364 _c
165 264 177 189 203 139 _c
229 89 267 64 318 64 _c
369 64 407 89 433 139 _c
458 189 471 264 471 364 _c
471 464 458 539 433 589 _c
407 639 369 664 318 664 _c
318 742 _m
399 742 461 709 505 645 _c
548 580 570 486 570 364 _c
570 241 548 147 505 83 _c
461 19 399 -13 318 -13 _c
236 -13 173 19 130 83 _c
87 147 66 241 66 364 _c
66 486 87 580 130 645 _c
173 709 236 742 318 742 _c
_cl}_d
/one{636 0 110 0 544 729 _sc
124 83 _m
285 83 _l
285 639 _l
110 604 _l
110 694 _l
284 729 _l
383 729 _l
383 83 _l
544 83 _l
544 0 _l
124 0 _l
124 83 _l
_cl}_d
/two{{636 0 73 0 536 742 _sc
192 83 _m
536 83 _l
536 0 _l
73 0 _l
73 83 _l
110 121 161 173 226 239 _c
290 304 331 346 348 365 _c
380 400 402 430 414 455 _c
426 479 433 504 433 528 _c
433 566 419 598 392 622 _c
365 646 330 659 286 659 _c
255 659 222 653 188 643 _c
154 632 117 616 78 594 _c
78 694 _l
118 710 155 722 189 730 _c
223 738 255 742 284 742 _c
}_e{359 742 419 723 464 685 _c
509 647 532 597 532 534 _c
532 504 526 475 515 449 _c
504 422 484 390 454 354 _c
446 344 420 317 376 272 _c
332 227 271 164 192 83 _c
_cl}_e}_d
/five{{636 0 77 -13 549 729 _sc
108 729 _m
495 729 _l
495 646 _l
198 646 _l
198 467 _l
212 472 227 476 241 478 _c
255 480 270 482 284 482 _c
365 482 429 459 477 415 _c
525 370 549 310 549 234 _c
549 155 524 94 475 51 _c
426 8 357 -13 269 -13 _c
238 -13 207 -10 175 -6 _c
143 -1 111 6 77 17 _c
77 116 _l
106 100 136 88 168 80 _c
199 72 232 69 267 69 _c
}_e{323 69 368 83 401 113 _c
433 143 450 183 450 234 _c
450 284 433 324 401 354 _c
368 384 323 399 267 399 _c
241 399 214 396 188 390 _c
162 384 135 375 108 363 _c
108 729 _l
_cl}_e}_d
/B{{686 0 98 0 615 729 _sc
197 348 _m
197 81 _l
355 81 _l
408 81 447 92 473 114 _c
498 136 511 169 511 215 _c
511 260 498 293 473 315 _c
447 337 408 348 355 348 _c
197 348 _l
197 648 _m
197 428 _l
343 428 _l
391 428 426 437 450 455 _c
474 473 486 500 486 538 _c
486 574 474 602 450 620 _c
426 638 391 648 343 648 _c
197 648 _l
98 729 _m
350 729 _l
}_e{425 729 483 713 524 682 _c
564 650 585 606 585 549 _c
585 504 574 468 553 442 _c
532 416 502 399 462 393 _c
510 382 548 360 575 327 _c
601 294 615 253 615 204 _c
615 138 592 88 548 53 _c
504 17 441 0 360 0 _c
98 0 _l
98 729 _l
_cl}_e}_d
/G{{775 0 56 -13 693 742 _sc
595 104 _m
595 300 _l
434 300 _l
434 381 _l
693 381 _l
693 68 _l
655 40 613 20 567 7 _c
521 -6 472 -13 420 -13 _c
306 -13 216 20 152 86 _c
88 152 56 245 56 364 _c
56 482 88 575 152 642 _c
216 708 306 742 420 742 _c
467 742 512 736 555 724 _c
598 712 638 695 674 673 _c
674 568 _l
637 598 598 621 557 637 _c
516 653 473 661 428 661 _c
}_e{338 661 271 636 227 586 _c
182 536 160 462 160 364 _c
160 265 182 191 227 141 _c
271 91 338 67 428 67 _c
462 67 493 70 521 76 _c
549 82 573 91 595 104 _c
_cl}_e}_d
/I{295 0 98 0 197 729 _sc
98 729 _m
197 729 _l
197 0 _l
98 0 _l
98 729 _l
_cl}_d
/M{863 0 98 0 765 729 _sc
98 729 _m
245 729 _l
431 233 _l
618 729 _l
765 729 _l
765 0 _l
669 0 _l
669 640 _l
481 140 _l
382 140 _l
194 640 _l
194 0 _l
98 0 _l
98 729 _l
_cl}_d
/O{787 0 56 -13 731 742 _sc
394 662 _m
322 662 265 635 223 582 _c
181 528 160 456 160 364 _c
160 272 181 199 223 146 _c
265 92 322 66 394 66 _c
465 66 522 92 564 146 _c
606 199 627 272 627 364 _c
627 456 606 528 564 582 _c
522 635 465 662 394 662 _c
394 742 _m
496 742 577 707 639 639 _c
700 571 731 479 731 364 _c
731 248 700 157 639 89 _c
577 21 496 -13 394 -13 _c
291 -13 209 21 148 89 _c
86 157 56 248 56 364 _c
56 479 86 571 148 639 _c
209 707 291 742 394 742 _c
_cl}_d
/R{{695 0 98 0 666 729 _sc
444 342 _m
465 334 486 319 506 296 _c
526 272 546 240 566 199 _c
666 0 _l
560 0 _l
467 187 _l
443 235 419 268 397 284 _c
374 300 343 308 304 308 _c
197 308 _l
197 0 _l
98 0 _l
98 729 _l
321 729 _l
404 729 466 711 507 677 _c
548 642 569 589 569 519 _c
569 473 558 434 537 404 _c
515 374 484 353 444 342 _c
197 648 _m
197 389 _l
321 389 _l
}_e{368 389 404 400 428 422 _c
452 444 465 476 465 519 _c
465 561 452 593 428 615 _c
404 637 368 648 321 648 _c
197 648 _l
_cl}_e}_d
/S{{635 0 66 -13 579 742 _sc
535 705 _m
535 609 _l
497 627 462 640 429 649 _c
395 657 363 662 333 662 _c
279 662 237 651 208 631 _c
179 610 165 580 165 542 _c
165 510 174 485 194 469 _c
213 452 250 439 304 429 _c
364 417 _l
437 403 491 378 526 343 _c
561 307 579 260 579 201 _c
579 130 555 77 508 41 _c
460 5 391 -13 300 -13 _c
265 -13 228 -9 189 -2 _c
}_e{150 5 110 16 69 32 _c
69 134 _l
109 111 148 94 186 83 _c
224 71 262 66 300 66 _c
356 66 399 77 430 99 _c
460 121 476 152 476 194 _c
476 230 465 258 443 278 _c
421 298 385 313 335 323 _c
275 335 _l
201 349 148 372 115 404 _c
82 435 66 478 66 534 _c
66 598 88 649 134 686 _c
179 723 242 742 322 742 _c
356 742 390 739 426 733 _c
461 727 497 717 535 705 _c
}_e{_cl}_e}_d
/a{{613 0 60 -13 522 560 _sc
343 275 _m
270 275 220 266 192 250 _c
164 233 150 205 150 165 _c
150 133 160 107 181 89 _c
202 70 231 61 267 61 _c
317 61 357 78 387 114 _c
417 149 432 196 432 255 _c
432 275 _l
343 275 _l
522 312 _m
522 0 _l
432 0 _l
432 83 _l
411 49 385 25 355 10 _c
325 -5 287 -13 243 -13 _c
187 -13 142 2 109 33 _c
76 64 60 106 60 159 _c
}_e{60 220 80 266 122 298 _c
163 329 224 345 306 345 _c
432 345 _l
432 354 _l
432 395 418 427 391 450 _c
364 472 326 484 277 484 _c
245 484 215 480 185 472 _c
155 464 127 453 100 439 _c
100 522 _l
132 534 164 544 195 550 _c
226 556 256 560 286 560 _c
365 560 424 539 463 498 _c
502 457 522 395 522 312 _c
_cl}_e}_d
/c{{550 0 55 -13 488 560 _sc
488 526 _m
488 442 _l
462 456 437 466 411 473 _c
385 480 360 484 334 484 _c
276 484 230 465 198 428 _c
166 391 150 339 150 273 _c
150 206 166 154 198 117 _c
230 80 276 62 334 62 _c
360 62 385 65 411 72 _c
437 79 462 90 488 104 _c
488 21 _l
462 9 436 0 410 -5 _c
383 -10 354 -13 324 -13 _c
242 -13 176 12 128 64 _c
}_e{79 115 55 185 55 273 _c
55 362 79 432 128 483 _c
177 534 244 560 330 560 _c
358 560 385 557 411 551 _c
437 545 463 537 488 526 _c
_cl}_e}_d
/d{{635 0 55 -13 544 760 _sc
454 464 _m
454 760 _l
544 760 _l
544 0 _l
454 0 _l
454 82 _l
435 49 411 25 382 10 _c
353 -5 319 -13 279 -13 _c
213 -13 159 13 117 65 _c
75 117 55 187 55 273 _c
55 359 75 428 117 481 _c
159 533 213 560 279 560 _c
319 560 353 552 382 536 _c
411 520 435 496 454 464 _c
148 273 _m
148 207 161 155 188 117 _c
215 79 253 61 301 61 _c
}_e{348 61 385 79 413 117 _c
440 155 454 207 454 273 _c
454 339 440 390 413 428 _c
385 466 348 485 301 485 _c
253 485 215 466 188 428 _c
161 390 148 339 148 273 _c
_cl}_e}_d
/e{{615 0 55 -13 562 560 _sc
562 296 _m
562 252 _l
149 252 _l
153 190 171 142 205 110 _c
238 78 284 62 344 62 _c
378 62 412 66 444 74 _c
476 82 509 95 541 113 _c
541 28 _l
509 14 476 3 442 -3 _c
408 -9 373 -13 339 -13 _c
251 -13 182 12 131 62 _c
80 112 55 181 55 268 _c
55 357 79 428 127 481 _c
175 533 241 560 323 560 _c
397 560 455 536 498 489 _c
}_e{540 441 562 377 562 296 _c
472 322 _m
471 371 457 410 431 440 _c
404 469 368 484 324 484 _c
274 484 234 469 204 441 _c
174 413 156 373 152 322 _c
472 322 _l
_cl}_e}_d
/h{634 0 91 0 549 760 _sc
549 330 _m
549 0 _l
459 0 _l
459 327 _l
459 379 448 417 428 443 _c
408 469 378 482 338 482 _c
289 482 251 466 223 435 _c
195 404 181 362 181 309 _c
181 0 _l
91 0 _l
91 760 _l
181 760 _l
181 462 _l
202 494 227 519 257 535 _c
286 551 320 560 358 560 _c
420 560 468 540 500 501 _c
532 462 549 405 549 330 _c
_cl}_d
/i{278 0 94 0 184 760 _sc
94 547 _m
184 547 _l
184 0 _l
94 0 _l
94 547 _l
94 760 _m
184 760 _l
184 646 _l
94 646 _l
94 760 _l
_cl}_d
/l{278 0 94 0 184 760 _sc
94 760 _m
184 760 _l
184 0 _l
94 0 _l
94 760 _l
_cl}_d
/m{{974 0 91 0 889 560 _sc
520 442 _m
542 482 569 511 600 531 _c
631 550 668 560 711 560 _c
767 560 811 540 842 500 _c
873 460 889 403 889 330 _c
889 0 _l
799 0 _l
799 327 _l
799 379 789 418 771 444 _c
752 469 724 482 686 482 _c
639 482 602 466 575 435 _c
548 404 535 362 535 309 _c
535 0 _l
445 0 _l
445 327 _l
445 379 435 418 417 444 _c
398 469 369 482 331 482 _c
}_e{285 482 248 466 221 435 _c
194 404 181 362 181 309 _c
181 0 _l
91 0 _l
91 547 _l
181 547 _l
181 462 _l
201 495 226 520 255 536 _c
283 552 317 560 357 560 _c
397 560 430 550 458 530 _c
486 510 506 480 520 442 _c
_cl}_e}_d
/n{634 0 91 0 549 560 _sc
549 330 _m
549 0 _l
459 0 _l
459 327 _l
459 379 448 417 428 443 _c
408 469 378 482 338 482 _c
289 482 251 466 223 435 _c
195 404 181 362 181 309 _c
181 0 _l
91 0 _l
91 547 _l
181 547 _l
181 462 _l
202 494 227 519 257 535 _c
286 551 320 560 358 560 _c
420 560 468 540 500 501 _c
532 462 549 405 549 330 _c
_cl}_d
/o{612 0 55 -13 557 560 _sc
306 484 _m
258 484 220 465 192 427 _c
164 389 150 338 150 273 _c
150 207 163 156 191 118 _c
219 80 257 62 306 62 _c
354 62 392 80 420 118 _c
448 156 462 207 462 273 _c
462 337 448 389 420 427 _c
392 465 354 484 306 484 _c
306 560 _m
384 560 445 534 490 484 _c
534 433 557 363 557 273 _c
557 183 534 113 490 63 _c
445 12 384 -13 306 -13 _c
227 -13 165 12 121 63 _c
77 113 55 183 55 273 _c
55 363 77 433 121 484 _c
165 534 227 560 306 560 _c
_cl}_d
/q{{635 0 55 -207 544 560 _sc
148 273 _m
148 207 161 155 188 117 _c
215 79 253 61 301 61 _c
348 61 385 79 413 117 _c
440 155 454 207 454 273 _c
454 339 440 390 413 428 _c
385 466 348 485 301 485 _c
253 485 215 466 188 428 _c
161 390 148 339 148 273 _c
454 82 _m
435 49 411 25 382 10 _c
353 -5 319 -13 279 -13 _c
213 -13 159 13 117 65 _c
75 117 55 187 55 273 _c
}_e{55 359 75 428 117 481 _c
159 533 213 560 279 560 _c
319 560 353 552 382 536 _c
411 520 435 496 454 464 _c
454 547 _l
544 547 _l
544 -207 _l
454 -207 _l
454 82 _l
_cl}_e}_d
/r{411 0 91 0 411 560 _sc
411 463 _m
401 469 390 473 378 476 _c
366 478 353 480 339 480 _c
288 480 249 463 222 430 _c
194 397 181 350 181 288 _c
181 0 _l
91 0 _l
91 547 _l
181 547 _l
181 462 _l
199 495 224 520 254 536 _c
284 552 321 560 365 560 _c
371 560 378 559 386 559 _c
393 558 401 557 411 555 _c
411 463 _l
_cl}_d
/s{{521 0 54 -13 472 560 _sc
443 531 _m
443 446 _l
417 458 391 468 364 475 _c
336 481 308 485 279 485 _c
234 485 200 478 178 464 _c
156 450 145 430 145 403 _c
145 382 153 366 169 354 _c
185 342 217 330 265 320 _c
296 313 _l
360 299 405 279 432 255 _c
458 230 472 195 472 151 _c
472 100 452 60 412 31 _c
372 1 316 -13 246 -13 _c
216 -13 186 -10 154 -5 _c
}_e{122 0 89 8 54 20 _c
54 113 _l
87 95 120 82 152 74 _c
184 65 216 61 248 61 _c
290 61 323 68 346 82 _c
368 96 380 117 380 144 _c
380 168 371 187 355 200 _c
339 213 303 226 247 238 _c
216 245 _l
160 257 119 275 95 299 _c
70 323 58 356 58 399 _c
58 450 76 490 112 518 _c
148 546 200 560 268 560 _c
301 560 332 557 362 552 _c
391 547 418 540 443 531 _c
}_e{_cl}_e}_d
/t{392 0 27 0 368 702 _sc
183 702 _m
183 547 _l
368 547 _l
368 477 _l
183 477 _l
183 180 _l
183 135 189 106 201 94 _c
213 81 238 75 276 75 _c
368 75 _l
368 0 _l
276 0 _l
206 0 158 13 132 39 _c
106 65 93 112 93 180 _c
93 477 _l
27 477 _l
27 547 _l
93 547 _l
93 702 _l
183 702 _l
_cl}_d
/u{634 0 85 -13 543 560 _sc
85 216 _m
85 547 _l
175 547 _l
175 219 _l
175 167 185 129 205 103 _c
225 77 255 64 296 64 _c
344 64 383 79 411 110 _c
439 141 453 183 453 237 _c
453 547 _l
543 547 _l
543 0 _l
453 0 _l
453 84 _l
431 50 405 26 377 10 _c
348 -5 315 -13 277 -13 _c
214 -13 166 6 134 45 _c
101 83 85 140 85 216 _c
311 560 _m
311 560 _l
_cl}_d
/w{818 0 42 0 776 547 _sc
42 547 _m
132 547 _l
244 120 _l
356 547 _l
462 547 _l
574 120 _l
686 547 _l
776 547 _l
633 0 _l
527 0 _l
409 448 _l
291 0 _l
185 0 _l
42 547 _l
_cl}_d
end readonly def

/BuildGlyph
 {exch begin
 CharStrings exch
 2 copy known not{pop /.notdef}if
 true 3 1 roll get exec
 end}_d

/BuildChar {
 1 index /Encoding get exch get
 1 index /BuildGlyph get exec
}_d

FontName currentdict end definefont pop
end
%%EndProlog
mpldict begin
18 108 translate
576 576 0 0 clipbox
gsave
0 0 m
576 0 l
576 576 l
0 576 l
cl
1.000 setgray
fill
grestore
gsave
72 305.28 m
274.909091 305.28 l
274.909091 506.88 l
72 506.88 l
cl
1.000 setgray
fill
grestore
gsave
202.9 201.6 72 305.3 clipbox
81.22314 305.28 m
120.057416 305.28 l
120.057416 339.297802 l
81.22314 339.297802 l
cl
0.000 0.000 1.000 setrgbcolor
fill
grestore
gsave
202.9 201.6 72 305.3 clipbox
129.765985 305.28 m
168.600261 305.28 l
168.600261 314.798096 l
129.765985 314.798096 l
cl
1.000 0.647 0.000 setrgbcolor
fill
grestore
gsave
202.9 201.6 72 305.3 clipbox
178.30883 305.28 m
217.143106 305.28 l
217.143106 360.556971 l
178.30883 360.556971 l
cl
0.000 0.000 1.000 setrgbcolor
fill
grestore
gsave
202.9 201.6 72 305.3 clipbox
226.851675 305.28 m
265.68595 305.28 l
265.68595 368.838341 l
226.851675 368.838341 l
cl
1.000 0.647 0.000 setrgbcolor
fill
grestore
0.800 setlinewidth
1 setlinejoin
0 setlinecap
[] 0 setdash
0.000 setgray
gsave
/o {
gsave
newpath
translate
0.8 setlinewidth
1 setlinejoin
0 setlinecap
0 0 m
0 -3.5 l

gsave
0.000 setgray
fill
grestore
stroke
grestore
} bind def
100.64 305.28 o
grestore
/DejaVuSans findfont
10.000 scalefont
setfont
gsave
86.851216 290.686250 translate
0.000000 rotate
0.000000 0 m /M glyphshow
8.627930 0 m /M glyphshow
17.255859 0 m /r glyphshow
21.242188 0 m /d glyphshow
grestore
gsave
/o {
gsave
newpath
translate
0.8 setlinewidth
1 setlinejoin
0 setlinecap
0 0 m
0 -3.5 l

gsave
0.000 setgray
fill
grestore
stroke
grestore
} bind def
149.183 305.28 o
grestore
gsave
138.604998 290.686250 translate
0.000000 rotate
0.000000 0 m /I glyphshow
2.949219 0 m /O glyphshow
10.820312 0 m /r glyphshow
14.806641 0 m /d glyphshow
grestore
gsave
/o {
gsave
newpath
translate
0.8 setlinewidth
1 setlinejoin
0 setlinecap
0 0 m
0 -3.5 l

gsave
0.000 setgray
fill
grestore
stroke
grestore
} bind def
197.726 305.28 o
grestore
gsave
182.952530 290.686250 translate
0.000000 rotate
0.000000 0 m /M glyphshow
8.627930 0 m /M glyphshow
17.255859 0 m /w glyphshow
25.434570 0 m /r glyphshow
grestore
gsave
/o {
gsave
newpath
translate
0.8 setlinewidth
1 setlinejoin
0 setlinecap
0 0 m
0 -3.5 l

gsave
0.000 setgray
fill
grestore
stroke
grestore
} bind def
246.269 305.28 o
grestore
gsave
234.706313 290.686250 translate
0.000000 rotate
0.000000 0 m /I glyphshow
2.949219 0 m /O glyphshow
10.820312 0 m /w glyphshow
18.999023 0 m /r glyphshow
grestore
gsave
/o {
gsave
newpath
translate
0.8 setlinewidth
1 setlinejoin
0 setlinecap
0 0 m
-3.5 0 l

gsave
0.000 setgray
fill
grestore
stroke
grestore
} bind def
72 305.28 o
grestore
gsave
49.093750 301.483125 translate
0.000000 rotate
0.000000 0 m /zero glyphshow
6.362305 0 m /period glyphshow
9.541016 0 m /zero glyphshow
grestore
gsave
/o {
gsave
newpath
translate
0.8 setlinewidth
1 setlinejoin
0 setlinecap
0 0 m
-3.5 0 l

gsave
0.000 setgray
fill
grestore
stroke
grestore
} bind def
72 344.417 o
grestore
gsave
49.093750 340.620035 translate
0.000000 rotate
0.000000 0 m /zero glyphshow
6.362305 0 m /period glyphshow
9.541016 0 m /five glyphshow
grestore
gsave
/o {
gsave
newpath
translate
0.8 setlinewidth
1 setlinejoin
0 setlinecap
0 0 m
-3.5 0 l

gsave
0.000 setgray
fill
grestore
stroke
grestore
} bind def
72 383.554 o
grestore
gsave
49.093750 379.756944 translate
0.000000 rotate
0.000000 0 m /one glyphshow
6.362305 0 m /period glyphshow
9.541016 0 m /zero glyphshow
grestore
gsave
/o {
gsave
newpath
translate
0.8 setlinewidth
1 setlinejoin
0 setlinecap
0 0 m
-3.5 0 l

gsave
0.000 setgray
fill
grestore
stroke
grestore
} bind def
72 422.691 o
grestore
gsave
49.093750 418.893854 translate
0.000000 rotate
0.000000 0 m /one glyphshow
6.362305 0 m /period glyphshow
9.541016 0 m /five glyphshow
grestore
gsave
/o {
gsave
newpath
translate
0.8 setlinewidth
1 setlinejoin
0 setlinecap
0 0 m
-3.5 0 l

gsave
0.000 setgray
fill
grestore
stroke
grestore
} bind def
72 461.828 o
grestore
gsave
49.093750 458.030764 translate
0.000000 rotate
0.000000 0 m /two glyphshow
6.362305 0 m /period glyphshow
9.541016 0 m /zero glyphshow
grestore
gsave
/o {
gsave
newpath
translate
0.8 setlinewidth
1 setlinejoin
0 setlinecap
0 0 m
-3.5 0 l

gsave
0.000 setgray
fill
grestore
stroke
grestore
} bind def
72 500.965 o
grestore
gsave
49.093750 497.167673 translate
0.000000 rotate
0.000000 0 m /two glyphshow
6.362305 0 m /period glyphshow
9.541016 0 m /five glyphshow
grestore
gsave
43.015625 362.353438 translate
90.000000 rotate
0.000000 0 m /B glyphshow
6.860352 0 m /a glyphshow
12.988281 0 m /n glyphshow
19.326172 0 m /d glyphshow
25.673828 0 m /w glyphshow
33.852539 0 m /i glyphshow
36.630859 0 m /d glyphshow
42.978516 0 m /t glyphshow
46.899414 0 m /h glyphshow
53.237305 0 m /space glyphshow
56.416016 0 m /parenleft glyphshow
60.317383 0 m /G glyphshow
68.066406 0 m /B glyphshow
74.926758 0 m /slash glyphshow
78.295898 0 m /s glyphshow
83.505859 0 m /parenright glyphshow
grestore
1.500 setlinewidth
gsave
202.9 201.6 72 305.3 clipbox
100.640278 339.096104 m
100.640278 339.499499 l
stroke
grestore
gsave
202.9 201.6 72 305.3 clipbox
149.183123 314.573408 m
149.183123 315.022785 l
stroke
grestore
gsave
202.9 201.6 72 305.3 clipbox
197.725968 314.170334 m
197.725968 406.943608 l
stroke
grestore
gsave
202.9 201.6 72 305.3 clipbox
246.268813 334.776259 m
246.268813 402.900424 l
stroke
grestore
1.000 setlinewidth
gsave
202.9 201.6 72 305.3 clipbox
/o {
gsave
newpath
translate
1.0 setlinewidth
1 setlinejoin
0 setlinecap
8 -0 m
-8 0 l

gsave
0.000 setgray
fill
grestore
stroke
grestore
} bind def
100.64 339.096 o
149.183 314.573 o
197.726 314.17 o
246.269 334.776 o
grestore
gsave
202.9 201.6 72 305.3 clipbox
/o {
gsave
newpath
translate
1.0 setlinewidth
1 setlinejoin
0 setlinecap
8 -0 m
-8 0 l

gsave
0.000 setgray
fill
grestore
stroke
grestore
} bind def
100.64 339.499 o
149.183 315.023 o
197.726 406.944 o
246.269 402.9 o
grestore
0.800 setlinewidth
0 setlinejoin
2 setlinecap
[] 0 setdash
gsave
72 305.28 m
72 506.88 l
stroke
grestore
gsave
274.909091 305.28 m
274.909091 506.88 l
stroke
grestore
gsave
72 305.28 m
274.909091 305.28 l
stroke
grestore
gsave
72 506.88 m
274.909091 506.88 l
stroke
grestore
/DejaVuSans findfont
12.000 scalefont
setfont
gsave
126.860795 512.880000 translate
0.000000 rotate
0.000000 0 m /S glyphshow
7.617188 0 m /e glyphshow
15.000000 0 m /q glyphshow
22.617188 0 m /u glyphshow
30.222656 0 m /e glyphshow
37.605469 0 m /n glyphshow
45.210938 0 m /t glyphshow
49.916016 0 m /i glyphshow
53.250000 0 m /a glyphshow
60.603516 0 m /l glyphshow
63.937500 0 m /hyphen glyphshow
68.267578 0 m /c glyphshow
74.865234 0 m /o glyphshow
82.207031 0 m /l glyphshow
85.541016 0 m /d glyphshow
grestore
gsave
315.490909 305.28 m
518.4 305.28 l
518.4 506.88 l
315.490909 506.88 l
cl
1.000 setgray
fill
grestore
gsave
202.9 201.6 315.5 305.3 clipbox
324.71405 305.28 m
363.548325 305.28 l
363.548325 344.448219 l
324.71405 344.448219 l
cl
0.000 0.000 1.000 setrgbcolor
fill
grestore
gsave
202.9 201.6 315.5 305.3 clipbox
373.256894 305.28 m
412.09117 305.28 l
412.09117 323.267324 l
373.256894 323.267324 l
cl
1.000 0.647 0.000 setrgbcolor
fill
grestore
gsave
202.9 201.6 315.5 305.3 clipbox
421.799739 305.28 m
460.634015 305.28 l
460.634015 375.460306 l
421.799739 375.460306 l
cl
0.000 0.000 1.000 setrgbcolor
fill
grestore
gsave
202.9 201.6 315.5 305.3 clipbox
470.342584 305.28 m
509.17686 305.28 l
509.17686 380.328938 l
470.342584 380.328938 l
cl
1.000 0.647 0.000 setrgbcolor
fill
grestore
1 setlinejoin
0 setlinecap
[] 0 setdash
gsave
/o {
gsave
newpath
translate
0.8 setlinewidth
1 setlinejoin
0 setlinecap
0 0 m
0 -3.5 l

gsave
0.000 setgray
fill
grestore
stroke
grestore
} bind def
344.131 305.28 o
grestore
/DejaVuSans findfont
10.000 scalefont
setfont
gsave
330.342125 290.686250 translate
0.000000 rotate
0.000000 0 m /M glyphshow
8.627930 0 m /M glyphshow
17.255859 0 m /r glyphshow
21.242188 0 m /d glyphshow
grestore
gsave
/o {
gsave
newpath
translate
0.8 setlinewidth
1 setlinejoin
0 setlinecap
0 0 m
0 -3.5 l

gsave
0.000 setgray
fill
grestore
stroke
grestore
} bind def
392.674 305.28 o
grestore
gsave
382.095907 290.686250 translate
0.000000 rotate
0.000000 0 m /I glyphshow
2.949219 0 m /O glyphshow
10.820312 0 m /r glyphshow
14.806641 0 m /d glyphshow
grestore
gsave
/o {
gsave
newpath
translate
0.8 setlinewidth
1 setlinejoin
0 setlinecap
0 0 m
0 -3.5 l

gsave
0.000 setgray
fill
grestore
stroke
grestore
} bind def
441.217 305.28 o
grestore
gsave
426.443439 290.686250 translate
0.000000 rotate
0.000000 0 m /M glyphshow
8.627930 0 m /M glyphshow
17.255859 0 m /w glyphshow
25.434570 0 m /r glyphshow
grestore
gsave
/o {
gsave
newpath
translate
0.8 setlinewidth
1 setlinejoin
0 setlinecap
0 0 m
0 -3.5 l

gsave
0.000 setgray
fill
grestore
stroke
grestore
} bind def
489.76 305.28 o
grestore
gsave
478.197222 290.686250 translate
0.000000 rotate
0.000000 0 m /I glyphshow
2.949219 0 m /O glyphshow
10.820312 0 m /w glyphshow
18.999023 0 m /r glyphshow
grestore
gsave
/o {
gsave
newpath
translate
0.8 setlinewidth
1 setlinejoin
0 setlinecap
0 0 m
-3.5 0 l

gsave
0.000 setgray
fill
grestore
stroke
grestore
} bind def
315.491 305.28 o
grestore
gsave
/o {
gsave
newpath
translate
0.8 setlinewidth
1 setlinejoin
0 setlinecap
0 0 m
-3.5 0 l

gsave
0.000 setgray
fill
grestore
stroke
grestore
} bind def
315.491 344.417 o
grestore
gsave
/o {
gsave
newpath
translate
0.8 setlinewidth
1 setlinejoin
0 setlinecap
0 0 m
-3.5 0 l

gsave
0.000 setgray
fill
grestore
stroke
grestore
} bind def
315.491 383.554 o
grestore
gsave
/o {
gsave
newpath
translate
0.8 setlinewidth
1 setlinejoin
0 setlinecap
0 0 m
-3.5 0 l

gsave
0.000 setgray
fill
grestore
stroke
grestore
} bind def
315.491 422.691 o
grestore
gsave
/o {
gsave
newpath
translate
0.8 setlinewidth
1 setlinejoin
0 setlinecap
0 0 m
-3.5 0 l

gsave
0.000 setgray
fill
grestore
stroke
grestore
} bind def
315.491 461.828 o
grestore
gsave
/o {
gsave
newpath
translate
0.8 setlinewidth
1 setlinejoin
0 setlinecap
0 0 m
-3.5 0 l

gsave
0.000 setgray
fill
grestore
stroke
grestore
} bind def
315.491 500.965 o
grestore
gsave
309.412784 362.353438 translate
90.000000 rotate
0.000000 0 m /B glyphshow
6.860352 0 m /a glyphshow
12.988281 0 m /n glyphshow
19.326172 0 m /d glyphshow
25.673828 0 m /w glyphshow
33.852539 0 m /i glyphshow
36.630859 0 m /d glyphshow
42.978516 0 m /t glyphshow
46.899414 0 m /h glyphshow
53.237305 0 m /space glyphshow
56.416016 0 m /parenleft glyphshow
60.317383 0 m /G glyphshow
68.066406 0 m /B glyphshow
74.926758 0 m /slash glyphshow
78.295898 0 m /s glyphshow
83.505859 0 m /parenright glyphshow
grestore
1.500 setlinewidth
gsave
202.9 201.6 315.5 305.3 clipbox
344.131187 342.980841 m
344.131187 345.915598 l
stroke
grestore
gsave
202.9 201.6 315.5 305.3 clipbox
392.674032 323.176042 m
392.674032 323.358606 l
stroke
grestore
gsave
202.9 201.6 315.5 305.3 clipbox
441.216877 335.63951 m
441.216877 415.281102 l
stroke
grestore
gsave
202.9 201.6 315.5 305.3 clipbox
489.759722 341.084147 m
489.759722 419.573729 l
stroke
grestore
1.000 setlinewidth
gsave
202.9 201.6 315.5 305.3 clipbox
/o {
gsave
newpath
translate
1.0 setlinewidth
1 setlinejoin
0 setlinecap
8 -0 m
-8 0 l

gsave
0.000 setgray
fill
grestore
stroke
grestore
} bind def
344.131 342.981 o
392.674 323.176 o
441.217 335.64 o
489.76 341.084 o
grestore
gsave
202.9 201.6 315.5 305.3 clipbox
/o {
gsave
newpath
translate
1.0 setlinewidth
1 setlinejoin
0 setlinecap
8 -0 m
-8 0 l

gsave
0.000 setgray
fill
grestore
stroke
grestore
} bind def
344.131 345.916 o
392.674 323.359 o
441.217 415.281 o
489.76 419.574 o
grestore
0.800 setlinewidth
0 setlinejoin
2 setlinecap
[] 0 setdash
gsave
315.490909 305.28 m
315.490909 506.88 l
stroke
grestore
gsave
518.4 305.28 m
518.4 506.88 l
stroke
grestore
gsave
315.490909 305.28 m
518.4 305.28 l
stroke
grestore
gsave
315.490909 506.88 m
518.4 506.88 l
stroke
grestore
/DejaVuSans findfont
12.000 scalefont
setfont
gsave
366.023580 512.880000 translate
0.000000 rotate
0.000000 0 m /S glyphshow
7.617188 0 m /e glyphshow
15.000000 0 m /q glyphshow
22.617188 0 m /u glyphshow
30.222656 0 m /e glyphshow
37.605469 0 m /n glyphshow
45.210938 0 m /t glyphshow
49.916016 0 m /i glyphshow
53.250000 0 m /a glyphshow
60.603516 0 m /l glyphshow
63.937500 0 m /hyphen glyphshow
68.267578 0 m /w glyphshow
78.082031 0 m /a glyphshow
85.435547 0 m /r glyphshow
90.119141 0 m /m glyphshow
grestore
gsave
72 63.36 m
274.909091 63.36 l
274.909091 264.96 l
72 264.96 l
cl
1.000 setgray
fill
grestore
gsave
202.9 201.6 72 63.36 clipbox
81.22314 63.36 m
120.057416 63.36 l
120.057416 99.772981 l
81.22314 99.772981 l
cl
0.000 0.000 1.000 setrgbcolor
fill
grestore
gsave
202.9 201.6 72 63.36 clipbox
129.765985 63.36 m
168.600261 63.36 l
168.600261 71.719644 l
129.765985 71.719644 l
cl
1.000 0.647 0.000 setrgbcolor
fill
grestore
gsave
202.9 201.6 72 63.36 clipbox
178.30883 63.36 m
217.143106 63.36 l
217.143106 222.960318 l
178.30883 222.960318 l
cl
0.000 0.000 1.000 setrgbcolor
fill
grestore
gsave
202.9 201.6 72 63.36 clipbox
226.851675 63.36 m
265.68595 63.36 l
265.68595 162.908643 l
226.851675 162.908643 l
cl
1.000 0.647 0.000 setrgbcolor
fill
grestore
1 setlinejoin
0 setlinecap
[] 0 setdash
gsave
/o {
gsave
newpath
translate
0.8 setlinewidth
1 setlinejoin
0 setlinecap
0 0 m
0 -3.5 l

gsave
0.000 setgray
fill
grestore
stroke
grestore
} bind def
100.64 63.36 o
grestore
/DejaVuSans findfont
10.000 scalefont
setfont
gsave
86.851216 48.766250 translate
0.000000 rotate
0.000000 0 m /M glyphshow
8.627930 0 m /M glyphshow
17.255859 0 m /r glyphshow
21.242188 0 m /d glyphshow
grestore
gsave
/o {
gsave
newpath
translate
0.8 setlinewidth
1 setlinejoin
0 setlinecap
0 0 m
0 -3.5 l

gsave
0.000 setgray
fill
grestore
stroke
grestore
} bind def
149.183 63.36 o
grestore
gsave
138.604998 48.766250 translate
0.000000 rotate
0.000000 0 m /I glyphshow
2.949219 0 m /O glyphshow
10.820312 0 m /r glyphshow
14.806641 0 m /d glyphshow
grestore
gsave
/o {
gsave
newpath
translate
0.8 setlinewidth
1 setlinejoin
0 setlinecap
0 0 m
0 -3.5 l

gsave
0.000 setgray
fill
grestore
stroke
grestore
} bind def
197.726 63.36 o
grestore
gsave
182.952530 48.766250 translate
0.000000 rotate
0.000000 0 m /M glyphshow
8.627930 0 m /M glyphshow
17.255859 0 m /w glyphshow
25.434570 0 m /r glyphshow
grestore
gsave
/o {
gsave
newpath
translate
0.8 setlinewidth
1 setlinejoin
0 setlinecap
0 0 m
0 -3.5 l

gsave
0.000 setgray
fill
grestore
stroke
grestore
} bind def
246.269 63.36 o
grestore
gsave
234.706313 48.766250 translate
0.000000 rotate
0.000000 0 m /I glyphshow
2.949219 0 m /O glyphshow
10.820312 0 m /w glyphshow
18.999023 0 m /r glyphshow
grestore
gsave
/o {
gsave
newpath
translate
0.8 setlinewidth
1 setlinejoin
0 setlinecap
0 0 m
-3.5 0 l

gsave
0.000 setgray
fill
grestore
stroke
grestore
} bind def
72 63.36 o
grestore
gsave
49.093750 59.563125 translate
0.000000 rotate
0.000000 0 m /zero glyphshow
6.362305 0 m /period glyphshow
9.541016 0 m /zero glyphshow
grestore
gsave
/o {
gsave
newpath
translate
0.8 setlinewidth
1 setlinejoin
0 setlinecap
0 0 m
-3.5 0 l

gsave
0.000 setgray
fill
grestore
stroke
grestore
} bind def
72 102.497 o
grestore
gsave
49.093750 98.700035 translate
0.000000 rotate
0.000000 0 m /zero glyphshow
6.362305 0 m /period glyphshow
9.541016 0 m /five glyphshow
grestore
gsave
/o {
gsave
newpath
translate
0.8 setlinewidth
1 setlinejoin
0 setlinecap
0 0 m
-3.5 0 l

gsave
0.000 setgray
fill
grestore
stroke
grestore
} bind def
72 141.634 o
grestore
gsave
49.093750 137.836944 translate
0.000000 rotate
0.000000 0 m /one glyphshow
6.362305 0 m /period glyphshow
9.541016 0 m /zero glyphshow
grestore
gsave
/o {
gsave
newpath
translate
0.8 setlinewidth
1 setlinejoin
0 setlinecap
0 0 m
-3.5 0 l

gsave
0.000 setgray
fill
grestore
stroke
grestore
} bind def
72 180.771 o
grestore
gsave
49.093750 176.973854 translate
0.000000 rotate
0.000000 0 m /one glyphshow
6.362305 0 m /period glyphshow
9.541016 0 m /five glyphshow
grestore
gsave
/o {
gsave
newpath
translate
0.8 setlinewidth
1 setlinejoin
0 setlinecap
0 0 m
-3.5 0 l

gsave
0.000 setgray
fill
grestore
stroke
grestore
} bind def
72 219.908 o
grestore
gsave
49.093750 216.110764 translate
0.000000 rotate
0.000000 0 m /two glyphshow
6.362305 0 m /period glyphshow
9.541016 0 m /zero glyphshow
grestore
gsave
/o {
gsave
newpath
translate
0.8 setlinewidth
1 setlinejoin
0 setlinecap
0 0 m
-3.5 0 l

gsave
0.000 setgray
fill
grestore
stroke
grestore
} bind def
72 259.045 o
grestore
gsave
49.093750 255.247673 translate
0.000000 rotate
0.000000 0 m /two glyphshow
6.362305 0 m /period glyphshow
9.541016 0 m /five glyphshow
grestore
gsave
43.015625 120.433438 translate
90.000000 rotate
0.000000 0 m /B glyphshow
6.860352 0 m /a glyphshow
12.988281 0 m /n glyphshow
19.326172 0 m /d glyphshow
25.673828 0 m /w glyphshow
33.852539 0 m /i glyphshow
36.630859 0 m /d glyphshow
42.978516 0 m /t glyphshow
46.899414 0 m /h glyphshow
53.237305 0 m /space glyphshow
56.416016 0 m /parenleft glyphshow
60.317383 0 m /G glyphshow
68.066406 0 m /B glyphshow
74.926758 0 m /slash glyphshow
78.295898 0 m /s glyphshow
83.505859 0 m /parenright glyphshow
grestore
1.500 setlinewidth
gsave
202.9 201.6 72 63.36 clipbox
100.640278 98.212679 m
100.640278 101.333283 l
stroke
grestore
gsave
202.9 201.6 72 63.36 clipbox
149.183123 71.416895 m
149.183123 72.022393 l
stroke
grestore
gsave
202.9 201.6 72 63.36 clipbox
197.725968 209.072945 m
197.725968 236.84769 l
stroke
grestore
gsave
202.9 201.6 72 63.36 clipbox
246.268813 149.010034 m
246.268813 176.807253 l
stroke
grestore
1.000 setlinewidth
gsave
202.9 201.6 72 63.36 clipbox
/o {
gsave
newpath
translate
1.0 setlinewidth
1 setlinejoin
0 setlinecap
8 -0 m
-8 0 l

gsave
0.000 setgray
fill
grestore
stroke
grestore
} bind def
100.64 98.2127 o
149.183 71.4169 o
197.726 209.073 o
246.269 149.01 o
grestore
gsave
202.9 201.6 72 63.36 clipbox
/o {
gsave
newpath
translate
1.0 setlinewidth
1 setlinejoin
0 setlinecap
8 -0 m
-8 0 l

gsave
0.000 setgray
fill
grestore
stroke
grestore
} bind def
100.64 101.333 o
149.183 72.0224 o
197.726 236.848 o
246.269 176.807 o
grestore
0.800 setlinewidth
0 setlinejoin
2 setlinecap
[] 0 setdash
gsave
72 63.36 m
72 264.96 l
stroke
grestore
gsave
274.909091 63.36 m
274.909091 264.96 l
stroke
grestore
gsave
72 63.36 m
274.909091 63.36 l
stroke
grestore
gsave
72 264.96 m
274.909091 264.96 l
stroke
grestore
/DejaVuSans findfont
12.000 scalefont
setfont
gsave
133.985795 270.960000 translate
0.000000 rotate
0.000000 0 m /R glyphshow
8.087891 0 m /a glyphshow
15.441406 0 m /n glyphshow
23.046875 0 m /d glyphshow
30.664062 0 m /o glyphshow
38.005859 0 m /m glyphshow
49.695312 0 m /hyphen glyphshow
54.025391 0 m /c glyphshow
60.623047 0 m /o glyphshow
67.964844 0 m /l glyphshow
71.298828 0 m /d glyphshow
grestore
gsave
315.490909 63.36 m
518.4 63.36 l
518.4 264.96 l
315.490909 264.96 l
cl
1.000 setgray
fill
grestore
gsave
202.9 201.6 315.5 63.36 clipbox
324.71405 63.36 m
363.548325 63.36 l
363.548325 102.042922 l
324.71405 102.042922 l
cl
0.000 0.000 1.000 setrgbcolor
fill
grestore
gsave
202.9 201.6 315.5 63.36 clipbox
373.256894 63.36 m
412.09117 63.36 l
412.09117 81.23774 l
373.256894 81.23774 l
cl
1.000 0.647 0.000 setrgbcolor
fill
grestore
gsave
202.9 201.6 315.5 63.36 clipbox
421.799739 63.36 m
460.634015 63.36 l
460.634015 238.035855 l
421.799739 238.035855 l
cl
0.000 0.000 1.000 setrgbcolor
fill
grestore
gsave
202.9 201.6 315.5 63.36 clipbox
470.342584 63.36 m
509.17686 63.36 l
509.17686 176.7318 l
470.342584 176.7318 l
cl
1.000 0.647 0.000 setrgbcolor
fill
grestore
1 setlinejoin
0 setlinecap
[] 0 setdash
gsave
/o {
gsave
newpath
translate
0.8 setlinewidth
1 setlinejoin
0 setlinecap
0 0 m
0 -3.5 l

gsave
0.000 setgray
fill
grestore
stroke
grestore
} bind def
344.131 63.36 o
grestore
/DejaVuSans findfont
10.000 scalefont
setfont
gsave
330.342125 48.766250 translate
0.000000 rotate
0.000000 0 m /M glyphshow
8.627930 0 m /M glyphshow
17.255859 0 m /r glyphshow
21.242188 0 m /d glyphshow
grestore
gsave
/o {
gsave
newpath
translate
0.8 setlinewidth
1 setlinejoin
0 setlinecap
0 0 m
0 -3.5 l

gsave
0.000 setgray
fill
grestore
stroke
grestore
} bind def
392.674 63.36 o
grestore
gsave
382.095907 48.766250 translate
0.000000 rotate
0.000000 0 m /I glyphshow
2.949219 0 m /O glyphshow
10.820312 0 m /r glyphshow
14.806641 0 m /d glyphshow
grestore
gsave
/o {
gsave
newpath
translate
0.8 setlinewidth
1 setlinejoin
0 setlinecap
0 0 m
0 -3.5 l

gsave
0.000 setgray
fill
grestore
stroke
grestore
} bind def
441.217 63.36 o
grestore
gsave
426.443439 48.766250 translate
0.000000 rotate
0.000000 0 m /M glyphshow
8.627930 0 m /M glyphshow
17.255859 0 m /w glyphshow
25.434570 0 m /r glyphshow
grestore
gsave
/o {
gsave
newpath
translate
0.8 setlinewidth
1 setlinejoin
0 setlinecap
0 0 m
0 -3.5 l

gsave
0.000 setgray
fill
grestore
stroke
grestore
} bind def
489.76 63.36 o
grestore
gsave
478.197222 48.766250 translate
0.000000 rotate
0.000000 0 m /I glyphshow
2.949219 0 m /O glyphshow
10.820312 0 m /w glyphshow
18.999023 0 m /r glyphshow
grestore
gsave
/o {
gsave
newpath
translate
0.8 setlinewidth
1 setlinejoin
0 setlinecap
0 0 m
-3.5 0 l

gsave
0.000 setgray
fill
grestore
stroke
grestore
} bind def
315.491 63.36 o
grestore
gsave
/o {
gsave
newpath
translate
0.8 setlinewidth
1 setlinejoin
0 setlinecap
0 0 m
-3.5 0 l

gsave
0.000 setgray
fill
grestore
stroke
grestore
} bind def
315.491 102.497 o
grestore
gsave
/o {
gsave
newpath
translate
0.8 setlinewidth
1 setlinejoin
0 setlinecap
0 0 m
-3.5 0 l

gsave
0.000 setgray
fill
grestore
stroke
grestore
} bind def
315.491 141.634 o
grestore
gsave
/o {
gsave
newpath
translate
0.8 setlinewidth
1 setlinejoin
0 setlinecap
0 0 m
-3.5 0 l

gsave
0.000 setgray
fill
grestore
stroke
grestore
} bind def
315.491 180.771 o
grestore
gsave
/o {
gsave
newpath
translate
0.8 setlinewidth
1 setlinejoin
0 setlinecap
0 0 m
-3.5 0 l

gsave
0.000 setgray
fill
grestore
stroke
grestore
} bind def
315.491 219.908 o
grestore
gsave
/o {
gsave
newpath
translate
0.8 setlinewidth
1 setlinejoin
0 setlinecap
0 0 m
-3.5 0 l

gsave
0.000 setgray
fill
grestore
stroke
grestore
} bind def
315.491 259.045 o
grestore
gsave
309.412784 120.433438 translate
90.000000 rotate
0.000000 0 m /B glyphshow
6.860352 0 m /a glyphshow
12.988281 0 m /n glyphshow
19.326172 0 m /d glyphshow
25.673828 0 m /w glyphshow
33.852539 0 m /i glyphshow
36.630859 0 m /d glyphshow
42.978516 0 m /t glyphshow
46.899414 0 m /h glyphshow
53.237305 0 m /space glyphshow
56.416016 0 m /parenleft glyphshow
60.317383 0 m /G glyphshow
68.066406 0 m /B glyphshow
74.926758 0 m /slash glyphshow
78.295898 0 m /s glyphshow
83.505859 0 m /parenright glyphshow
grestore
1.500 setlinewidth
gsave
202.9 201.6 315.5 63.36 clipbox
344.131187 101.599032 m
344.131187 102.486811 l
stroke
grestore
gsave
202.9 201.6 315.5 63.36 clipbox
392.674032 81.199394 m
392.674032 81.276087 l
stroke
grestore
gsave
202.9 201.6 315.5 63.36 clipbox
441.216877 220.71171 m
441.216877 255.36 l
stroke
grestore
gsave
202.9 201.6 315.5 63.36 clipbox
489.759722 156.705288 m
489.759722 196.758312 l
stroke
grestore
1.000 setlinewidth
gsave
202.9 201.6 315.5 63.36 clipbox
/o {
gsave
newpath
translate
1.0 setlinewidth
1 setlinejoin
0 setlinecap
8 -0 m
-8 0 l

gsave
0.000 setgray
fill
grestore
stroke
grestore
} bind def
344.131 101.599 o
392.674 81.1994 o
441.217 220.712 o
489.76 156.705 o
grestore
gsave
202.9 201.6 315.5 63.36 clipbox
/o {
gsave
newpath
translate
1.0 setlinewidth
1 setlinejoin
0 setlinecap
8 -0 m
-8 0 l

gsave
0.000 setgray
fill
grestore
stroke
grestore
} bind def
344.131 102.487 o
392.674 81.2761 o
441.217 255.36 o
489.76 196.758 o
grestore
0.800 setlinewidth
0 setlinejoin
2 setlinecap
[] 0 setdash
gsave
315.490909 63.36 m
315.490909 264.96 l
stroke
grestore
gsave
518.4 63.36 m
518.4 264.96 l
stroke
grestore
gsave
315.490909 63.36 m
518.4 63.36 l
stroke
grestore
gsave
315.490909 264.96 m
518.4 264.96 l
stroke
grestore
/DejaVuSans findfont
12.000 scalefont
setfont
gsave
373.148580 270.960000 translate
0.000000 rotate
0.000000 0 m /R glyphshow
8.087891 0 m /a glyphshow
15.441406 0 m /n glyphshow
23.046875 0 m /d glyphshow
30.664062 0 m /o glyphshow
38.005859 0 m /m glyphshow
49.695312 0 m /hyphen glyphshow
54.025391 0 m /w glyphshow
63.839844 0 m /a glyphshow
71.193359 0 m /r glyphshow
75.876953 0 m /m glyphshow
grestore

end
showpage
