Iteration,Cache,Pattern,Test,Blocksize,Bandwidth(GBps),Time(s)
1,cold,seq,readmmap,8192,0.269,0.929
2,cold,seq,readmmap,8192,0.269,0.929
3,cold,seq,readmmap,8192,0.269,0.929
4,cold,seq,readmmap,8192,0.269,0.929
5,cold,seq,readmmap,8192,0.269,0.930
1,cold,seq,readsyscall,8192,0.220,1.134
2,cold,seq,readsyscall,8192,0.219,1.140
3,cold,seq,readsyscall,8192,0.220,1.137
4,cold,seq,readsyscall,8192,0.220,1.135
5,cold,seq,readsyscall,8192,0.221,1.131
1,cold,seq,writemmap,8192,1.859,0.134
2,cold,seq,writemmap,8192,2.427,0.103
3,cold,seq,writemmap,8192,2.132,0.117
4,cold,seq,writemmap,8192,2.436,0.103
5,cold,seq,writemmap,8192,2.401,0.104
1,cold,seq,writesyscall,8192,2.237,0.112
2,cold,seq,writesyscall,8192,2.233,0.112
3,cold,seq,writesyscall,8192,2.262,0.111
4,cold,seq,writesyscall,8192,1.690,0.148
5,cold,seq,writesyscall,8192,1.696,0.147
1,cold,rnd,readmmap,8192,0.267,0.936
2,cold,rnd,readmmap,8192,0.267,0.936
3,cold,rnd,readmmap,8192,0.267,0.936
4,cold,rnd,readmmap,8192,0.268,0.935
5,cold,rnd,readmmap,8192,0.267,0.935
1,cold,rnd,readsyscall,8192,0.154,1.620
2,cold,rnd,readsyscall,8192,0.156,1.604
3,cold,rnd,readsyscall,8192,0.152,1.650
4,cold,rnd,readsyscall,8192,0.158,1.586
5,cold,rnd,readsyscall,8192,0.146,1.718
1,cold,rnd,writemmap,8192,2.327,0.107
2,cold,rnd,writemmap,8192,2.436,0.103
3,cold,rnd,writemmap,8192,2.955,0.085
4,cold,rnd,writemmap,8192,3.007,0.083
5,cold,rnd,writemmap,8192,3.022,0.083
1,cold,rnd,writesyscall,8192,1.923,0.130
2,cold,rnd,writesyscall,8192,1.975,0.127
3,cold,rnd,writesyscall,8192,1.931,0.129
4,cold,rnd,writesyscall,8192,1.512,0.165
5,cold,rnd,writesyscall,8192,1.934,0.129
1,warm,seq,readmmap,8192,0.269,0.931
2,warm,seq,readmmap,8192,0.269,0.929
3,warm,seq,readmmap,8192,0.269,0.929
4,warm,seq,readmmap,8192,0.269,0.929
5,warm,seq,readmmap,8192,0.269,0.928
1,warm,seq,readsyscall,8192,0.229,1.092
2,warm,seq,readsyscall,8192,0.226,1.107
3,warm,seq,readsyscall,8192,0.228,1.098
4,warm,seq,readsyscall,8192,0.226,1.108
5,warm,seq,readsyscall,8192,0.228,1.097
1,warm,seq,writemmap,8192,1.860,0.134
2,warm,seq,writemmap,8192,2.013,0.124
3,warm,seq,writemmap,8192,2.226,0.112
4,warm,seq,writemmap,8192,2.024,0.124
5,warm,seq,writemmap,8192,2.011,0.124
1,warm,seq,writesyscall,8192,2.027,0.123
2,warm,seq,writesyscall,8192,1.577,0.159
3,warm,seq,writesyscall,8192,2.000,0.125
4,warm,seq,writesyscall,8192,1.582,0.158
5,warm,seq,writesyscall,8192,1.993,0.125
1,warm,rnd,readmmap,8192,0.267,0.935
2,warm,rnd,readmmap,8192,0.267,0.935
3,warm,rnd,readmmap,8192,0.267,0.936
4,warm,rnd,readmmap,8192,0.267,0.936
5,warm,rnd,readmmap,8192,0.267,0.936
1,warm,rnd,readsyscall,8192,0.230,1.089
2,warm,rnd,readsyscall,8192,0.228,1.097
3,warm,rnd,readsyscall,8192,0.229,1.094
4,warm,rnd,readsyscall,8192,0.230,1.089
5,warm,rnd,readsyscall,8192,0.228,1.096
1,warm,rnd,writemmap,8192,2.731,0.092
2,warm,rnd,writemmap,8192,2.634,0.095
3,warm,rnd,writemmap,8192,2.905,0.086
4,warm,rnd,writemmap,8192,2.568,0.097
5,warm,rnd,writemmap,8192,2.930,0.085
1,warm,rnd,writesyscall,8192,2.038,0.123
2,warm,rnd,writesyscall,8192,2.046,0.122
3,warm,rnd,writesyscall,8192,1.628,0.154
4,warm,rnd,writesyscall,8192,2.051,0.122
5,warm,rnd,writesyscall,8192,1.635,0.153
