Iteration,Cache,Pattern,Test,Blocksize,Bandwidth(GBps),Time(s)
1,cold,seq,readmmap,8192,0.438,9.133
2,cold,seq,readmmap,8192,0.431,9.283
3,cold,seq,readmmap,8192,0.433,9.247
4,cold,seq,readmmap,8192,0.434,9.218
5,cold,seq,readmmap,8192,0.437,9.157
1,cold,seq,readsyscall,8192,0.116,34.574
2,cold,seq,readsyscall,8192,0.124,32.283
3,cold,seq,readsyscall,8192,0.123,32.624
4,cold,seq,readsyscall,8192,0.123,32.590
5,cold,seq,readsyscall,8192,0.122,32.853
1,cold,seq,writemmap,8192,1.755,2.279
2,cold,seq,writemmap,8192,0.148,26.964
3,cold,seq,writemmap,8192,0.806,4.961
4,cold,seq,writemmap,8192,0.128,31.304
5,cold,seq,writemmap,8192,0.694,5.767
1,cold,seq,writesyscall,8192,0.742,5.394
2,cold,seq,writesyscall,8192,0.608,6.579
3,cold,seq,writesyscall,8192,0.472,8.478
4,cold,seq,writesyscall,8192,0.573,6.984
5,cold,seq,writesyscall,8192,1.665,2.403
1,cold,rnd,readmmap,8192,0.503,7.953
2,cold,rnd,readmmap,8192,0.468,8.538
3,cold,rnd,readmmap,8192,0.451,8.871
4,cold,rnd,readmmap,8192,0.452,8.854
5,cold,rnd,readmmap,8192,0.452,8.846
1,cold,rnd,readsyscall,8192,0.109,36.672
2,cold,rnd,readsyscall,8192,0.104,38.375
3,cold,rnd,readsyscall,8192,0.106,37.772
4,cold,rnd,readsyscall,8192,0.102,39.058
5,cold,rnd,readsyscall,8192,0.113,35.489
1,cold,rnd,writemmap,8192,1.752,2.283
2,cold,rnd,writemmap,8192,1.911,2.093
3,cold,rnd,writemmap,8192,2.188,1.828
4,cold,rnd,writemmap,8192,2.195,1.822
5,cold,rnd,writemmap,8192,2.149,1.861
1,cold,rnd,writesyscall,8192,1.280,3.126
2,cold,rnd,writesyscall,8192,1.172,3.412
3,cold,rnd,writesyscall,8192,1.613,2.480
4,cold,rnd,writesyscall,8192,1.142,3.502
5,cold,rnd,writesyscall,8192,1.152,3.473
1,warm,seq,readmmap,8192,0.463,8.641
2,warm,seq,readmmap,8192,0.508,7.872
3,warm,seq,readmmap,8192,0.510,7.845
4,warm,seq,readmmap,8192,0.509,7.856
5,warm,seq,readmmap,8192,0.512,7.813
1,warm,seq,readsyscall,8192,0.230,17.425
2,warm,seq,readsyscall,8192,0.228,17.559
3,warm,seq,readsyscall,8192,0.231,17.301
4,warm,seq,readsyscall,8192,0.231,17.288
5,warm,seq,readsyscall,8192,0.229,17.481
1,warm,seq,writemmap,8192,1.849,2.164
2,warm,seq,writemmap,8192,0.560,7.147
3,warm,seq,writemmap,8192,0.412,9.716
4,warm,seq,writemmap,8192,0.708,5.647
5,warm,seq,writemmap,8192,0.954,4.193
1,warm,seq,writesyscall,8192,1.165,3.433
2,warm,seq,writesyscall,8192,1.565,2.556
3,warm,seq,writesyscall,8192,1.229,3.256
4,warm,seq,writesyscall,8192,0.111,35.952
5,warm,seq,writesyscall,8192,0.724,5.522
1,warm,rnd,readmmap,8192,0.499,8.011
2,warm,rnd,readmmap,8192,0.492,8.128
3,warm,rnd,readmmap,8192,0.492,8.133
4,warm,rnd,readmmap,8192,0.502,7.966
5,warm,rnd,readmmap,8192,0.486,8.224
1,warm,rnd,readsyscall,8192,0.229,17.479
2,warm,rnd,readsyscall,8192,0.228,17.542
3,warm,rnd,readsyscall,8192,0.228,17.568
4,warm,rnd,readsyscall,8192,0.229,17.485
5,warm,rnd,readsyscall,8192,0.228,17.514
1,warm,rnd,writemmap,8192,2.293,1.744
2,warm,rnd,writemmap,8192,1.902,2.104
3,warm,rnd,writemmap,8192,2.457,1.628
4,warm,rnd,writemmap,8192,2.052,1.950
5,warm,rnd,writemmap,8192,2.454,1.630
1,warm,rnd,writesyscall,8192,1.308,3.058
2,warm,rnd,writesyscall,8192,1.704,2.348
3,warm,rnd,writesyscall,8192,1.158,3.454
4,warm,rnd,writesyscall,8192,1.803,2.219
5,warm,rnd,writesyscall,8192,1.269,3.153
